{
    "Name": "Canned Baked Beans",
    "Description": "Hearty beans cooked to be slightly sweet.",
    "Category": "Cooking",
    "Edibility": 56,
    "EdibleIsDrink": false,
    "EdibleBuffs": null,
    "Price": 775,
    "IsColored": false,
    "GiftTastes":
    {
        "Like": ["Abigail", "Alex", "Caroline", "Clint", "Demetrius", "Dwarf", "Elliott", "Emily", "Evelyn", "George", "Gus", "Harvey", "Jas", "Jodi", "Kent", "Leah", "Lewis", "Linus", "Marnie", "Maru", "Pam", "Penny", "Pierre", "Robin", "Sam", "Sandy", "Sebastian", "Shane", "Vincent", "Wizard"],
        "Dislike": ["Krobus", "Willy"],
    },
    "Recipe":
    {
        "ResultCount": 1,
        "Ingredients": [
        {
            "Object": "Brown Sugar",
            "Count": 1,
        },
        {
            "Object": "Navy Bean",
            "Count": 3,
        }],
        "CanPurchase": true,
        "PurchaseFrom": "GVDefault",
        "PurchasePrice": 2775,
    },
    "NameLocalization":
    {
        "es": "Frijoles enlatados horneados",
        "ko": "구운 콩 통조림",
        "de": "Gebackene Bohnen aus der Dose",
        "fr": "Conserve de fèves au lard",
        "hu": "Konzerv bab",
        // "it": "",
        "ja": "豆の缶詰",
        "pt": "Feijões enlatados",
        // "ru": "",
        // "tr": "",
        "zh": "罐装烤菜豆",
    },
    "DescriptionLocalization":
    {
        "es": "Frijoles ligeramente dulces.",
        "ko": "단맛이 나는 살짝 익힌 콩.",
        "de": "Herzhaft gebackene Bohnen um leicht süß zu schmecken.",
        "fr": "Harciots blancs copieux cuisinés pour être légérement sucrés.",
        "hu": "Húsos babok enyhén édesre főzve.",
        // "it": "",
        "ja": "ほんのり甘めに調理されたボリュームたっぷりの豆。",
        "pt": "Um feijão saudável cozido feito para ser levemente doce.",
        // "ru": "",
        // "tr": "",
        "zh": "这罐烤菜豆的口味偏甜。",
    }
}