{
    "Name": "Mutton",
    "Description": "A rich, tough cut from a sheep.",
    "Category": "Meat",
    "Edibility": -300,
    "Price": 100,
    "IsColored": false,
    "GiftTastes":
    {
        "Dislike": ["Abigail", "Alex", "Caroline", "Clint", "Demetrius", "Dwarf", "Elliott", "Emily", "Evelyn", "George", "Gus", "Haley", "Harvey", "Jas", "Jodi", "Kent", "Krobus", "Leah", "Lewis", "Linus", "Marnie", "Maru", "Pam", "Penny", "Pierre", "Robin", "Sam", "Sandy", "Shane", "Vincent", "Willy", "Wizard"],
        "Hate": ["Sebastian"],
    },
    "Recipe": null,
    "NameLocalization":
    {
        "es": "Cordero",
        "ko": "양고기",
        "de": "Ziegenfleisch",
        "fr": "Viande de mouton",
        "hu": "Birkahús",
        // "it": "",
        "ja": "羊肉",
        "pt": "Carne de carneiro",
        "ru": "Баранина",
        // "tr": "",
        "zh": "山羊肉",
    },
    "DescriptionLocalization":
    {
        "es": "Un rico corte de cordero.",
        "ko": "양에게서 얻는 고기",
        "de": "Ein schönes Stück von der Ziege.",
        "fr": "Une tranche riche et dure d'un mouton.",
        "hu": "Egy gazdag, rágós szelet egy birka húsából.",
        // "it": "",
        "ja": "固めな羊のお肉。マトン。",
        "pt": "Um corte firme e rico de uma ovelha.",
        "ru": "Твёрдая и сочная вырезка с овцы.",
        // "tr": "",
        "zh": "从山羊身上切下的一部分肥满多汁的肉。",
    },
    "DisableWithMod": "DIGUS.ANIMALHUSBANDRYMOD"
}
