{
    "Name": "Wild Boar Meat",
    "Description": "A gamey but tasty cut of wild boar.",
    "Category": "Meat",
    "Edibility": -300,
    "Price": 225,
    "IsColored": false,
    "GiftTastes":
    {
        "Dislike": ["Abigail", "Alex", "Caroline", "Clint", "Demetrius", "Dwarf", "Elliott", "Emily", "Evelyn", "George", "Gus", "Haley", "Harvey", "Jas", "Jodi", "Kent", "Krobus", "Leah", "Lewis", "Linus", "Marnie", "Maru", "Pam", "Penny", "Pierre", "Robin", "Sam", "Sandy", "Shane", "Vincent", "Willy", "Wizard"],
        "Hate": ["Sebastian"],
    },    
    "NameLocalization":
    {
        "es": "Carne de jabalí",
        "ko": "야생 멧돼지",
        // "de": "",
        "fr": "Viande de sanglier",
        "hu": "Vaddisznóhús",
        // "it": "",
        // "ja": "",
        // "pt": "",
        // "ru": "",
        // "tr": "",
         "zh": "野猪肉",
    },
    "DescriptionLocalization":
    {
        "es": "Un corte de jabalí jugoso y sabroso.",
        "ko": "누린내가 있지만 맛있는 야생 멧돼지 고기.",
        // "de": "",
        "fr": "Une tranche de sanglier sauvage à l'odeur de gibier mais savoureuse.",
        "hu": "Egy vaddisznó rágós, de ízletes hússzelete.",
        // "it": "",
        // "ja": "",
        // "pt": "",
        // "ru": "",
        // "tr": "",
         "zh": "美味可口的野猪肉。",
    },    
    "DisableWithMod": "HadiZosa.BFAVnewmeat"
}
