{
    "Name": "Alpaca Meat",
    "Description": "A cut of meat from an alpaca.",
    "Category": "Meat",
    "Edibility": -300,
    "Price": 135,
    "IsColored": false,
    "GiftTastes":
    {
        "Dislike": ["Abigail", "Alex", "Caroline", "Clint", "Demetrius", "Dwarf", "Elliott", "Emily", "Evelyn", "George", "Gus", "Haley", "Harvey", "Jas", "Jodi", "Kent", "Krobus", "Leah", "Lewis", "Linus", "Marnie", "Maru", "Pam", "Penny", "Pierre", "Robin", "Sam", "Sandy", "Shane", "Vincent", "Willy", "Wizard"],
        "Hate": ["Sebastian"],
    },
    "Recipe": null,

    "NameLocalization":
    {
        "es": "Carne de alpaca",
        "ko": "알파카 고기",
        // "de": "",
        "fr": "Viande d'alpaga",
        "hu": "Alpaka hús",
        // "it": "",
        // "ja": "",
         "pt": "Carne de Alpaca",
        // "ru": "",
        // "tr": "",
         "zh": "羊驼肉",
    },
    "DescriptionLocalization":
    {
        "es": "Un corte de carne de una alpaca.",
        "ko": "알파카의 고기.",
        // "de": "",
        "fr": "Une pièce de viande d'un alpaga.",
        "hu": "Egy alpaka húsának darabja.",
        // "it": "",
        // "ja": "",
         "pt": "Um corte de carne de uma alpaca.",
        // "ru": "",
        // "tr": "",
         "zh": "从羊驼身上切下来的肉。",
    },
    "DisableWithMod": "HadiZosa.BFAVnewmeat"
}
