{
  "NameTooltipMode": 3,
  "ImmersionOption": 1,
  "ByHeartLevel": false,
  "HeartLevelMin": 0,
  "HeartLevelMax": 12,
  "OnlySameLocation": false,
  "ShowHiddenVillagers": false,
  "MarkQuests": true,
  "ShowTravelingMerchant": true,
  "ShowMinimap": false,
  "MinimapX": 12,
  "MinimapY": 12,
  "MinimapWidth": 75,
  "MinimapHeight": 45
}