{
  "Farm_Sandbox_Layout": "false",
  "Farm_Light_Debris": "false",
  "Dirt_Crop_Field_1": "false",
  "Dirt_Crop_Field_2": "false",
  "Dirt_Crop_Field_3": "false",
  "Dirt_Crop_Field_4": "false",
  "Dirt_Crop_Field_5": "false",
  "Dirt_Crop_Field_6": "false",
  "Remove_Fences_In_Front_Of_Grandpas_Shed": "false",
  "Remove_Farm_Animal_Area_Fences": "false",
  "Remove_Fences_Left_Of_Crop_Field_1": "false",
  "Remove_Central_Cherry_Blossom_Tree_And_Water_Trough": "false",
  "Remove_Table_From_Backyard": "false",
  "Remove_Fences_From_Backyard": "false",
  "Remove_Pet_House_From_Backyard": "false",
  "Remove_Flowerbed_From_Backyard": "false",
  "Minecart_System": "true",
  "Remove_Objects_From_Greenhouse": "false",
  "Disable_IF2R_Greenhouse": "false"
}