{
    "Name": "Oolong Tea",
    "Description": "A dark tea popular in foreign lands.",
    "Category": "Cooking",
    "Edibility": 6,
    "EdibleIsDrink": true,
    "EdibleBuffs": null,
    "Price": 375,
    "IsColored": false,
    "Recipe":
    {
        "ResultCount": 1,
        "Ingredients": [
        {
            "Object": 815,
            "Count": 4,
        }],
        "CanPurchase": true,
        "PurchaseFrom": "GVDefault",
        "PurchasePrice": 1375,
            },
    "GiftTastes":
    {
        "Like": ["Abigail", "Alex", "Caroline", "Clint", "Demetrius", "Dwarf", "Elliott", "Emily", "Evelyn", "George", "Gus", "Harvey", "Jodi", "Kent", "Krobus", "Leah", "Lewis", "Linus", "Marnie", "Maru", "Pam", "Penny", "Pierre", "Robin", "Sam", "Sandy", "Sebastian", "Shane", "Willy", "Wizard"],
        "Dislike": ["Haley", "Jas", "Vincent"],
    },

    "NameLocalization":
    {
        "es": "Té de oolong",
        "ko": "우롱차",
        "de": "Oolong-Tee",
        "fr": "Thé Oolong",
         // "hu": "",
         // "it": "",
        "ja": "ウーロン茶",
        "pt": "Chá Oolong",
        "ru": "Улун",
         // "tr": "",
        "zh": "乌龙茶",
    },
    "DescriptionLocalization":
    {
        "es": "Un té oscuro popular en el extranjero.",
        "ko": "동양의 인기 차.",
        "de": "Ein dunkler Tee, der in fremden Ländern populär ist.",
        "fr": "L'entre-deux du thé noir et du thé vert, populaire dans de lointaines contrées.",
         // "hu": "",
         // "it": "",
        "ja": "外国で一般的な濃い色をしたお茶。",
        "pt": "Um chá escuro popular em terras estrangeiras.",
        "ru": "Темный чай, популярный зарубежом.",
         // "tr": "",
        "zh": "乌龙茶。一种在异国他乡流行的红茶。",
    },
    "ContextTags": [
        "color_yellow",
        "color_green",
        "tea_item",
    ],
}