{
    "Name": "Seasonings",
    "Description": "A collection of spices for preparing a delicious meat rub.",
    "Category": "ArtisanGoods",
    "Edibility": -300,
    "Price": 10,
    "IsColored": false,
    "CanPurchase": true,
    "PurchaseFrom": "GVDefault",
    "PurchasePrice": 50,
    "PurchaseRequirements": null,    
    "NameLocalization":
    {
        "es": "Condimentos",
        "ko": "시즈닝",
        // "de": "",
        "fr": "Assaisonnements",
       "hu": "Fűszerek",
        // "it": "",
        // "ja": "",
        // "pt": "",
        // "ru": "",
        // "tr": "",
         "zh": "调料品",
    },
    "DescriptionLocalization":
    {
        "es": "Una colección de especias para preparar un delicioso aderezo de carne.",
        "ko": "고기에 문질러 맛과 향을 내는 향신료 모음입니다.",
        // "de": "",
        "fr": "Une collection d'épices pour préparer de la délicieuse viande frictionnée.",
        "hu": "Egy fűszernövény keverék, mely készen is áll húsok bepácolásához.",
        // "it": "",
        // "ja": "",
        // "pt": "",
        // "ru": "",
        // "tr": "",
         "zh": "为腌制肉类而准备的各种调料合集。",
    },    
    "DisableWithMod": "HadiZosa.BFAVnewmeat"
}
