  {
      "Name": "Strawberry Macaron",
      "Description": "The quintessential macaron, flavored like strawberries.",
      "Category": "Cooking",
      "Edibility": 96,
      "EdibleIsDrink": false,
      "EdibleBuffs": null,
      "Price": 1350,
      "IsColored": false,
      "GiftTastes":
      {
          "Like": ["Alex", "Caroline", "Clint", "Demetrius", "Dwarf", "Elliott", "Emily", "Evelyn", "George", "Gus", "Harvey", "Jodi", "Kent", "Leah", "Lewis", "Linus", "Marnie", "Maru", "Pam", "Penny", "Pierre", "Robin", "Sam", "Sandy", "Sebastian", "Shane", "Wizard"],
          "Neutral": ["Abigail", "Haley", "Jas", "Vincent"],
          "Dislike": ["Krobus", "Willy"],
      },
      "Recipe":
      {
          "ResultCount": 1,
          "Ingredients": [
          {
              "Object": "Almond",
              "Count": 2,
          },
          {
              "Object": -5,
              "Count": 3,
          },
          {
              "Object": 245,
              "Count": 1,
          },
          {
              "Object": 400,
              "Count": 2,
          }],
          "CanPurchase": true,
          "PurchaseFrom": "GVDefault",
          "PurchasePrice": 3350,
          "PurchaseRequirements": ["z summer fall winter",
              "y 3",
          ],
      },
      "NameLocalization":
      {
          "es": "Macaron de fresa",
          "ko": "딸기 마카롱",
          "de": "Erdbeer-Macaron",
          "fr": "Macaron à la fraise",
           // "hu": "",
           // "it": "",
          "ja": "ストロベリーマカロン",
          "pt": "Macaron de morango",
           // "ru": "",
           // "tr": "",
          "zh": "草莓马卡龙",
      },
      "DescriptionLocalization":
      {
          "es": "El macaron por excelencia, con aroma a fresas.",
          "ko": "딸기 맛이 나는, 전형적인 마카롱.",
          "de": "Der Inbegriff von Macaron mit Erdbeergeschmack.",
          "fr": "Le macaron typique, parfumé à la fraise.",
           // "hu": "",
           // "it": "",
          "ja": "イチゴ風味のマカロンの典型。",
          "pt": "O melhor macaron de todos, com sabor de morangos.",
           // "ru": "",
           // "tr": "",
          "zh": "很经典的马卡龙，草莓味的。",
      }
  }