{
    "Name": "Rainbow Candy Cookies",
    "Description": "These cookies have colorful pieces in them!",
    "Category": "Cooking",
    "Edibility": 82,
    "EdibleIsDrink": false,
    "EdibleBuffs": null,
    "Price": 835,
    "IsColored": false,
    "GiftTastes":
    {
        "Like": ["Abigail", "Alex", "Caroline", "Clint", "Demetrius", "Dwarf", "Elliott", "Emily", "Evelyn", "George", "Gus", "Haley", "Harvey", "Jas", "Jodi", "Kent", "Lewis", "Linus", "Marnie", "Maru", "Pam", "Penny", "Pierre", "Robin", "Sam", "Sandy", "Sebastian", "Shane", "Vincent", "Wizard"],
        "Dislike": ["Krobus", "Leah", "Willy"],
    },
    "Recipe":
    {
        "ResultCount": 1,
        "Ingredients": [
        {
            "Object": "Chocolate",
            "Count": 1,
        },
        {
            "Object": 246,
            "Count": 1,
        },
        {
            "Object": 245,
            "Count": 1,
        },
        {
            "Object": -5,
            "Count": 1,
        },
        {
            "Object": -6,
            "Count": 1,
        }],
        "CanPurchase": true,
        "PurchaseFrom": "GVDefault",
        "PurchasePrice": 2835,
        "PurchaseRequirements": ["HasCookingRecipe Chocolate", "y 4", ],
    },
    "NameLocalization":
    {
        "es": "Galletas arco iris",
        "ko": "무지개 사탕 쿠키",
        "de": "Regenbogenplätzchen",
        "fr": "Cookies aux dragées arc-en-ciel",
         // "hu": "",
         // "it": "",
        "ja": "レンボーキャンディクッキー",
        "pt": "Biscoitos doces de arco-íris",
         // "ru": "",
         // "tr": "",
        "zh": "彩虹糖饼干",
    },
    "DescriptionLocalization":
    {
        "es": "Estas galletas tienen piezas coloridas en ellas!",
        "ko": "알록달록한 조각들이 박혀 있어요!",
        "de": "Diese Plätzchen sind voll mit bunten Stückchen.",
        "fr": "Ces cookies ont des morceaux colorés en eux !",
         // "hu": "",
         // "it": "",
        "ja": "カラフルな粒を混ぜたクッキー",
        "pt": "Esses biscoitos têm pedaços coloridoas!",
         // "ru": "",
         // "tr": "",
        "zh": "这些饼干里面有很多五颜六色的东西！",
    }
}