{
    "Name": "Hay Rehydrator",
    "Description": "A bin that turns hay into fiber.",
    "Price": 0,
    "ProvidesLight": false,
    "ReserveExtraIndexCount": 2,
    "Recipe":
    {
        "ResultCount": 1,
        "Ingredients": [
        {
            "Object": 335,
            "Count": 8,
        },
        {
            "Object": 86,
            "Count": 2,
        },
        {
            "Object": 709,
            "Count": 10,
        },
		{
            "Object": 787,
            "Count": 1,
        },	],
        "CanPurchase": false,
		"IsDefault": false,
    },
		"NameLocalization": {
		"zh": "干草补水器",	
		"de": "Heu-Befeuchter"		
		},
    "DescriptionLocalization": {
		"zh": "将干草转化为纤维。",
		"de": "Wenn man Heu hineinlegt, wird es langsam wieder zu Fasern."
		}
}