{
    "Name": "Clematis",
    "Product": "Clematis",
    "SeedName": "Clematis Starter",
    "SeedDescription": "Plant in the fall. Takes 10 days to mature, but keeps producing after that. Grows on a trellis.",
    "Type": "Flower",

    "Seasons": ["fall"],
    "Phases": [1, 2, 2, 3, 2],
    "RegrowthPhase": 3,
    "HarvestWithScythe": false,
    "TrellisCrop": true,
    "Colors": null,
    "Bonus":
    {
        "MinimumPerHarvest": 1,
        "MaximumPerHarvest": 2,
        "MaxIncreasePerFarmLevel": 8,
        "ExtraChance": 0.2,
    },
    "SeedPurchasePrice": 50,
    "SeedNameLocalization":
    {
        "es": "Kit de clemátide",
        "ko": "클레머티스 씨앗",
        "de": "Klematis-Saat",
        // "fr": "",
        "hu": "Klemátisz magvak",
        // "it": "",
        "ja": "クレマチス栽培キット",
        "pt": "Semente de Atragene",
        "ru": "Семена ломоноса",
        // "tr": "",
        "zh": "铁线莲种子",
    },
    "SeedDescriptionLocalization":
    {
        "es": "Plántalas en otoño. Toma 10 días para madurar, sigue produciendo después de la primera cosecha. Crece en una espaldera.",
        "ko": "가을에 심습니다. 10일후에 피며, 수확한 후에도 계속 피어 납니다.",
        "de": "Pflanze im Herbst. Die Reifung dauert 10 Tage, produziert danach aber weiter. Wächst auf einer Ranke.",
        // "fr": "",
        "hu": "Ezeket ősszel ültesd el. 10 nap alatt hoz virágot, de utána tovább termel. Egy lécen terem meg.",
        // "it": "",
        "ja": "秋植えの花。10日かけて育ち、花を咲かせる。支柱に絡みながら育つ。くり返し収穫できる。",
        "pt": "Plante-a no outono. Demoram 10 dias para crescerem, e continuam a produção após a primeira colheita. Crescem em uma treliça",
        "ru": "Сажайте осенью. Цветок вырастает через 10 дней и продолжает расти после сбора. Растет на шпалере.",
        // "tr": "",
        "zh": "秋天播种。10天成熟，在第一次收获后循环生产。生长在架子上。",
    }
}