{
    "Name": "Fried Sweet Bananas",
    "Description": "Sugared bananas, sauteed in butter.",
    "Category": "Cooking",
    "Edibility": 68,
    "EdibleIsDrink": false,
    "EdibleBuffs": null,
    "Price": 545,
    "IsColored": false,
    "GiftTastes":
    {
        "Like": ["Abigail", "Alex", "Caroline", "Clint", "Demetrius", "Dwarf", "Elliott", "Emily", "Evelyn", "George", "Gus", "Haley", "Jas", "Jodi", "Kent", "Lewis", "Linus", "Marnie", "Maru", "Pam", "Penny", "Pierre", "Robin", "Sam", "Sandy", "Sebastian", "Shane", "Vincent", "Wizard"],
        "Neutral": ["Leah", "Harvey"],
        "Dislike": ["Krobus", "Willy"],
    },
    "Recipe":
    {
        "ResultCount": 1,
        "Ingredients": [
        {
            "Object": 245,
            "Count": 1,
        },
        {
            "Object": "Butter",
            "Count": 1,
        },
        {
            "Object": 91,
            "Count": 2,
        }],
        "CanPurchase": true,
        "PurchaseFrom": "GVDefault",
        "PurchasePrice": 2545,
        "PurchaseRequirements": ["n willyHours"]
    },
    "NameLocalization":
    {
        "es": "Plátanos dulces fritos",
        "ko": "달콤한 바나나 튀김",
        "de": "Gebratene Bananen",
        "fr": "Bananes sucrées frites",
         // "hu": "",
         // "it": "",
        "ja": "フライドバナナ",
        "pt": "Bananas doces fritas",
         // "ru": "",
         // "tr": "",
        "zh": "煎甜香蕉",
    },
    "DescriptionLocalization":
    {
        "es": "Plátanos azucarados, salteados en mantequilla.",
        "ko": "버터에 튀긴 설탕 바나나.",
        "de": "In Butter gebratene, gesüßte Bananen.",
        "fr": "Bananes sucrées, poêlées au beurre.",
         // "hu": "",
         // "it": "",
        "ja": "バターで炒めて砂糖をまぶしたバナナ。",
        "pt": "Bananas açucaradas, refogadas em manteiga.",
         // "ru": "",
         // "tr": "",
        "zh": "加了糖的香蕉，用黄油煎。",
    }
}