{
    "Name": "Cooked Chevon",
    "Description": "A lean cut from a goat already cooked and ready to use in a recipe.",
    "Category": "Cooking",
    "Edibility": 60,
    "Price": 200,
    "IsColored": false,
    "GiftTastes":
    {
        "Dislike": ["Abigail", "Alex", "Caroline", "Clint", "Demetrius", "Dwarf", "Elliott", "Emily", "Evelyn", "George", "Gus", "Haley", "Harvey", "Jas", "Jodi", "Kent", "Krobus", "Leah", "Lewis", "Linus", "Marnie", "Maru", "Pam", "Penny", "Pierre", "Robin", "Sam", "Sandy", "Shane", "Vincent", "Willy", "Wizard"],
        "Hate": ["Sebastian"],
    },
    "Recipe":
    {
        "ResultCount": 1,
        "Ingredients": [
        {
            "Object": "Chevon",
            "Count": 1,
        },
        {
            "Object": "Seasonings",
            "Count": 1,
        },],
        "CanPurchase": true, "PurchaseFrom": "GVDefault",
    },
    "CanPurchase": true,
    "PurchaseFrom": "GVDefault",
    "PurchasePrice": 200,
    "PurchaseRequirements": null,
    "NameLocalization":
    {
        "es": "Carne de cabra cocinada",
        "ko": "조리된 염소고기",
        // "de": "",
        "fr": "Viande de chèvre cuite",
        "hu": "Sült kecskehús",
        // "it": "",
        "ja": "調理済みヤギ肉",
        "pt": "Carne de cabra cozida",
        "ru": "Приготовленная козлятина",
        // "tr": "",
        "zh": "熟山羊肉",
    },
    "DescriptionLocalization":
    {
        "es": "Un corte magro de carne de cabra ya cocinada y lista para usarse en una receta.",
        "ko": "이미 조리되어서 요리에 쓰일 준비가 된 살코기.",
        // "de": "",
        "fr": "Une tranche fine de chèvre déjà cuite et prête à être utilisée dans une recette.",
        "hu": "Egy kecske húsának darabja megsütve, felhasználásra készen.",
        // "it": "",
        "ja": "レシピですぐに使えるよう下ごしらえが済んだヤギ肉の切り身。",
        "pt": "Um corte magro de uma cabra já cozido e pronto para ser usado em receitas.",
        "ru": "Нежная вырезка из козьего мяса, готовая к использованию в рецепте.",
        // "tr": "",
        "zh": "一种从山羊身上切下来的瘦肉，已经煮熟并准备用于食谱中。",
    },
    "ContextTags": [
        "cooked_meat",
        "meat_item",
    ]
}
