{
    "Name": "Biscuits and Gravy",
    "Description": "A breakfast classic with some homemade biscuits.",
    "Category": "Cooking",
    "Edibility": 180,
    "EdibleIsDrink": false,
    "EdibleBuffs": null,
    "Price": 1400,
    "IsColored": false,
    "GiftTastes":
    {
        "Love": ["Clint", "Kent", "Pierre", "Jodi", "George"],
        "Like": ["Alex", "Demetrius", "Dwarf", "Elliott", "Evelyn", "Gus", "Krobus", "Lewis", "Linus", "Maru", "Pam", "Penny", "Robin", "Sandy", "Shane", "Willy", "Wizard"],
        "Neutral": ["Caroline", "Harvey", "Marnie", "Sam"],
        "Dislike": ["Abigail", "Emily", "Haley", "Jas", "Leah", "Vincent"],
        "Hate": ["Sebastian"],
    },
    "Recipe":
    {
        "ResultCount": 1,
        "Ingredients": [
        {
            "Object": 216,
            "Count": 1,
        },
        {
            "Object": "Sausage",
            "Count": 1,
        },
        {
            "Object": "White Gravy",
            "Count": 1,
        }, ],
        "CanPurchase": true,
        "PurchaseFrom": "GVDefault",
        "PurchasePrice": 900,
        "PurchaseRequirements": ["HasCookingRecipe White-Gravy Sausage Bread", "y 4", ],
    },
    "NameLocalization":
    {
        "es": "Galletas y salsa",
        "ko": "비스킷과 그레이비",
        // "de": "",
        "fr": "Pain brioché et sauce de viande",
        // "hu": "",
        // "it": "",
        // "ja": "",
        "pt": "Biscoitos e Molho",
        // "ru": "",
        // "tr": "",
        "zh": "比斯吉佐肉汁",
    },
    "DescriptionLocalization":
    {
        "es": "Un desayuno clásico con galletas caseras.",
        "ko": "수제 비스킷이 포함 된 클래식 한 아침 식사.",
        // "de": "",
        "fr": "Un classique du petit déjeuner avec du pain brioché fait maison.",
        // "hu": "",
        // "it": "",
        // "ja": "",
        "pt": "Um clássico do café da manhã com alguns biscoitos caseiros.",
        // "ru": "",
        // "tr": "",
        "zh": "搭配自制饼干就是一份经典的早餐。",
    }
}