{
    "Name": "Miso Soup",
    "Description": "A traditional soup made from dashi stock, miso paste, seaweed, and tofu.",
    "Category": "Cooking",
    "Edibility": 65,
    "EdibleIsDrink": false,
    "EdibleBuffs": null,
    "Price": 735,
    "IsColored": false,
    "GiftTastes":
    {
        "Love": ["Abigail", "Harvey", "Alex", "Marnie", "Sebastian", "Elliott", "Willy", "George", ],
        "Like": ["Maru", "Sandy", "Jodi", ],
        "Dislike": ["Penny", "Demetrius"],
        "Hate": ["Dwarf"]
    },
    "Recipe":
    {
        "ResultCount": 1,
        "Ingredients": [
        {
            "Object": "Dashi Stock",
            "Count": 1,
        },
        {
            "Object": "Miso Paste",
            "Count": 1,
        },
        {
            "Object": "Tofu",
            "Count": 1,
        },
        {
            "Object": 152,
            "Count": 1,
        }, ],
        "CanPurchase": true,
        "PurchaseFrom": "GVDefault",
        "PurchasePrice": 1200,
        "PurchaseRequirements": ["y 4"],
    },
    "NameLocalization":
    {
        // "es": "",
        // "ko": "",
        // "de": "",
        // "fr": "",
        // "hu": "",
        // "it": "",
        "ja": "みそ汁",
        "pt": "Sopa de Miso",
        // "ru": "",
        // "tr": "",
        // "zh": "",
    },
    "DescriptionLocalization":
    {
        // "es": "",
        // "ko": "",
        // "de": "",
        // "fr": "",
        // "hu": "",
        // "it": "",
        "ja": "出汁、みそ、ワカメ、豆腐を使った伝統的なスープ。",
        "pt": "Uma sopa tradicional feita de estoque de dashi, pasta de miso, algas marinhas e tofu.",
        // "ru": "",
        // "tr": "",
        // "zh": "",
    }
}