{
    "Name": "Schnitzel",
    "Description": "A thin slice of pork fried in fat.",
    "Category": "Cooking",
    "Edibility": 55,
    "EdibleIsDrink": false,
    "EdibleBuffs": null,
    "Price": 1100,
    "IsColored": false,
    "GiftTastes":
    {
        "Love": ["Robin"],
        "Like": ["Abigail", "Alex", "Caroline", "Clint", "Demetrius", "Dwarf", "Elliott", "Emily", "Evelyn", "George", "Gus", "Haley", "Harvey", "Jas", "Jodi", "Kent", "Leah", "Lewis", "Linus", "Marnie", "Maru", "Pam", "Penny", "Pierre", "Sam", "Sandy", "Sebastian", "Shane", "Vincent", "Wizard"],
        "Hate": ["Krobus", "Willy"],
    },
    "Recipe":
    {
        "ResultCount": 1,
        "Ingredients": [
        {
            "Object": "Pork",
            "Count": 1,
        },
        {
            "Object": "BBQ Sauce",
            "Count": 1,
        },
        {
            "Object": "Mustard",
            "Count": 1,
        }, ],
        "CanPurchase": true, "PurchaseFrom": "GVDefault",
        "PurchaseFrom": "GVDefault",
        "PurchasePrice": 2000,
    },
    "NameLocalization":
    {
        // "es": "",
        // "ko": "",
        // "de": "",
        // "fr": "",
        // "hu": "",
        // "it": "",
        // "ja": "",
        // "pt": "",
        // "ru": "",
        // "tr": "",
        // "zh": "",
    },
    "DescriptionLocalization":
    {
        // "es": "",
        // "ko": "",
        // "de": "",
        // "fr": "",
        // "hu": "",
        // "it": "",
        // "ja": "",
        // "pt": "",
        // "ru": "",
        // "tr": "",
        // "zh": "",
    }
}