{
    "Name": "Bulgogi",
    "Description": "Its a sweet and savory marinated beef stir-fry! It's tender and juicy, even though the meat is very thin.",
    "Category": "Cooking",
    "Edibility": 75,
    "EdibleIsDrink": false,
    "EdibleBuffs": null,
    "Price": 680,
    "IsColored": false,
    "GiftTastes":
    {
        "Like": ["Alex", "Caroline", "Clint", "Demetrius", "Dwarf", "Elliott", "Emily", "Evelyn", "George", "Gus", "Harvey", "Jodi", "Kent", "Leah", "Lewis", "Linus", "Maru", "Pam", "Penny", "Pierre", "Robin", "Sandy", "Shane", "Wizard"],
        "Neutral": ["Abigail", "Haley", "Jas", "Vincent", "Willy"],
        "Dislike": ["Krobus", "Marnie", "Sam"],
        "Hate": ["Sebastian"],
    },
    "Recipe":
    {
        "ResultCount": 1,
        "Ingredients": [
        {
            "Object": "Cooked Beef",
            "Count": 1,
        },
        {
            "Object": "Kiwi",
            "Count": 1,
        },
        {
            "Object": "Asian Pear",
            "Count": 1,
        },
        {
            "Object": "Chives",
            "Count": 1,
        },
        {
            "Object": "Sesame Seeds",
            "Count": 1,
        }],
        "CanPurchase": true,
        "PurchaseFrom": "GVDefault",
        "PurchasePrice": 800,
            },
    "EnableWithMod": "ppja.moretrees",
    "EnableWithMod": "ppja.evenmorerecipes",
    "NameLocalization":
    {
        "es": "Bulgogi",
        "ko": "불고기",
        "de": "Bulgogi",
        "fr": "Bulgogi",
        "hu": "Pulgogi",
         // "it": "",
         // "ja": "",
         "pt": "Bulgogi",
         // "ru": "",
         // "tr": "",
        "zh": "韩式炒牛肉",
    },
    "DescriptionLocalization":
    {
        "es": "¡Es un salteado de carne marinada dulce pero salada! Es tierna y jugosa, aunque la carne es muy fina.",
        "ko": "달콤하고 맛있는 소고기 볶음! 고기가 매우 얇아도 부드럽고 맛있습니다.",
        "de": "Es ist ein süßes und herzhaftes mariniertes Rindfleisch-Pfannengericht! Es ist zart und saftig, obwohl das Fleisch sehr dünn ist.",
        "fr": "Du bœuf sauté et mariné délicieux et savoureux. C'est tendre et juteux, même si la viande est épaisse.",
        "hu": "Édes, és sós pácolt marhahús. Lágy és lédús, bár a hús nagyon vékony.",
         // "it": "",
         // "ja": "",
          "pt": "É uma carne marinada doce e salgada frito! É macio e suculento, mesmo que a carne seja muito fina.",
         // "ru": "",
         // "tr": "",
        "zh": "韩式炒牛肉。提前腌制过的牛肉反复煸炒，虽然牛肉被片得很薄，但口感嫩而多汁。",
    }
}
