{
    "Name": "Pizza Diavolo",
    "Description": "Pizza with spicy sausage and red pepper",
    "Category": "Cooking",
    "Edibility": 65,
    "EdibleIsDrink": false,
    "EdibleBuffs": null,
    "Price": 900,
    "IsColored": false,
    "GiftTastes":
    {
        "Love": ["George"],
        "Like": ["Abigail", "Alex", "Caroline", "Clint", "Demetrius", "Dwarf", "Elliott", "Emily", "Evelyn", "Gus", "Haley", "Harvey", "Jodi", "Maru", "Krobus", "Leah", "Lewis", "Linus", "Kent", "Marnie", "Pam", "Penny", "Pierre", "Robin", "Sam", "Sandy", "Sebastian", "Shane", "Willy", "Wizard"],
        "Dislike": ["Jas", "Vincent"],
    },
    "Recipe":
    {
        "ResultCount": 1,
        "Ingredients": [
        {
            "Object": 256,
            "Count": 1,
        },
        {
            "Object": "Tabasco Pepper",
            "Count": 1,
        },
        {
            "Object": 424,
            "Count": 1,
        },
        {
            "Object": 246,
            "Count": 1,
        },
        {
            "Object": "Salami",
            "Count": 1,
        }],
        "CanPurchase": true,
        "PurchaseFrom": "GVDefault",
        "PurchasePrice": 1800,
        "PurchaseRequirements": ["HasCookingRecipe Salami", "y 4", ],
    },
    "NameLocalization":
    {
        "es": "Pizza Diavolo",
        "ko": "디아볼로 피자",
        "de": "Pizza Diavolo",
        "fr": "Pizza Diavolo",
        "hu": "Pizza Diavolo",
        // "it": "",
        // "ja": "",
        // "pt": "",
        // "ru": "",
        // "tr": "",
        "zh": "恶魔披萨",
    },
    "DescriptionLocalization":
    {
        "es": "Pizza con chorizo picante y pimiento rojo.",
        "ko": "매운 소시지와 고추가 들어간 피자.",
        "de": "Pizza mit scharfer Salami und Chili",
        "fr": "Pizza avec de la saucisse épicée et du piment rouge.",
        "hu": "Csípős szalámis és csilis pizza.",
        // "it": "",
        // "ja": "",
        // "pt": "",
        // "ru": "",
        // "tr": "",
        "zh": "红辣椒香肠披萨，辣得可怕。",
    }
}