{
    "Name": "BBQ Sauce",
    "Description": "A sauce that usually has varying local flavors and additions. It adds a smoky touch to meat.",
    "Category": "Cooking",
    "Edibility": -300,
    "EdibleIsDrink": false,
    "GiftTastes":
    {
        "Like": ["Alex", "Caroline", "Clint", "Demetrius", "Dwarf", "Elliott", "Evelyn", "George", "Gus", "Jodi", "Kent", "Krobus", "Lewis", "Linus", "Maru", "Pam", "Penny", "Pierre", "Robin", "Sandy", "Shane", "Vincent", "Willy", "Wizard"],
        "Neutral": ["Abigail", "Harvey", "Leah", "Sam", "Sebastian"],
        "Dislike": ["Emily", "Haley", "Jas", "Marnie"],
    },
    "EdibleBuffs": null,
    "Price": 350,
    "IsColored": false,
    "Recipe":
    {
        "ResultCount": 1,
        "Ingredients": [
        {
            "Object": 419,
            "Count": 1,
        },
        {
            "Object": 256,
            "Count": 2,
        },
        {
            "Object": "Onion",
            "Count": 1,
        }],
        "CanPurchase": true,
        "PurchaseFrom": "GVDefault",
        "PurchasePrice": 400,
        "PurchaseRequirements": null,
    },

    "NameLocalization":
    {
        "es": "Salsa barbacoa",
        "ko": "BBQ 소스",
        "de": "BBQ-Sauce",
        "fr": "Sauce barbecue",
        "hu": "Barbecue szósz",
        // "it": "",
        "ja": "BBQソース",
         "pt": "Molho de churrasco",
        "ru": "Соус для барбекю",
        // "tr": "",
        "zh": "BBQ烧烤酱",
    },
    "DescriptionLocalization":
    {
        "es": "Una salsa que generalmente tiene diferentes sabores y añadidos locales. Agrega un toque ahumado a la carne.",
        "ko": "일반적으로 다양한 향미와 첨가물이 들어간 소스. 고기에 스모크향을 더합니다.",
        "de": "Eine Sauce mit Regionalen Zutaten. Hat einen rauchigen Geschmack.",
        "fr": "Une sauce qui a généralement des saveurs et des ajouts locaux variés. Elle ajoute un goût fumé à la viande.",
        "hu": "Egy szósz, melynek íze helytől függően eléggé eltérő lehet. Ad egy füstös beütést a húsnak.",
        // "it": "",
        "ja": "地方によって味付けが異なる。このソースは肉にスモーキーな風味を加える。",
        "pt": "Um molho que, geralmente, tem diferentes sabores e adições de uma região para outra. Acrescenta um toque defumado à carne.",
        "ru": "Соус из местных ингредиентов. Отлично подходит для мяса.",
        // "tr": "",
        "zh": "BBQ烧烤酱。一种酱汁通常有不同的风味。但是这种酱汁给肉增添了烟熏的味道。",
    }
}
