{
    "Name": "Strawberry Kiwi Popsicle",
    "Description": "It resembles a watermelon.",
    "Category": "Cooking",
    "Edibility": 42,
    "EdibleIsDrink": false,
    "EdibleBuffs": null,
    "Price": 725,
    "IsColored": false,
    "GiftTastes":
    {
        "Like": ["Alex", "Caroline", "Clint", "Demetrius", "Dwarf", "Elliott", "Emily", "Evelyn", "George", "Gus", "Harvey", "Jodi", "Kent", "Leah", "Lewis", "Linus", "Marnie", "Maru", "Pam", "Penny", "Pierre", "Robin", "Sam", "Sandy", "Sebastian", "Shane", "Wizard"],
        "Neutral": ["Abigail", "Haley", "Jas", "Vincent"],
        "Dislike": ["Krobus", "Willy"],
    },
    "Recipe":
    {
        "ResultCount": 1,
        "Ingredients": [
        {
            "Object": 400,
            "Count": 1,
        },
        {
            "Object": "Kiwi",
            "Count": 1,
        },
        {
            "Object": 388,
            "Count": 1,
        }],
        "CanPurchase": true,
        "PurchaseFrom": "GVDefault",
        "PurchasePrice": 1000,
            },
    "NameLocalization":
    {
        "es": "Paleta de fresa con kiwi",
        "ko": "딸기 키위 팝시클",
        "de": "Erdbeer-Kiwieis am Stiel",
        "fr": "Glace à l'eau fraise-kiwi",
         // "hu": "",
         // "it": "",
        "ja": "イチゴとキウイのアイスバー",
        "pt": "Picolé de Kiwi e Morango",
         // "ru": "",
         // "tr": "",
        "zh": "草莓猕猴桃冰棒",
    },
    "DescriptionLocalization":
    {
        "es": "Se asemeja a una sandia.",
        "ko": "수박 같이 생겼어요.",
        "de": "Es ähnelt einer Wassermelone.",
        "fr": "Ça ressemble à la pastèque.",
         // "hu": "",
         // "it": "",
        "ja": "スイカに似ている味。",
        "pt": "Assemelha-se a uma melancia.",
         // "ru": "",
         // "tr": "",
        "zh": "从颜色看起来像是西瓜味的。",
    }
}