{
    "Name": "Fresh Lemonade",
    "Description": "Freshly squeezed lemonade!",
    "Category": "Cooking",
    "Edibility": 32,
    "EdibleIsDrink": true,
    "EdibleBuffs": null,
    "Price": 450,
    "IsColored": false,
    "GiftTastes":
    {
        "Love": ["Gus"],
        "Like": ["Abigail", "Alex", "Caroline", "Clint", "Demetrius", "Dwarf", "Elliott", "Emily", "Evelyn", "George", "Haley", "Harvey", "Jas", "Jodi", "Kent", "Leah", "Lewis", "Linus", "Marnie", "Maru", "Pam", "Penny", "Pierre", "Robin", "Sam", "Sandy", "Sebastian", "Shane", "Vincent", "Wizard"],
        "Dislike": ["Krobus", "Willy"],
    },
    "Recipe":
    {
        "ResultCount": 1,
        "Ingredients": [
        {
            "Object": "Lemon",
            "Count": 1,
        },
        {
            "Object": 245,
            "Count": 1,
        }],
        "CanPurchase": true,
        "PurchaseFrom": "GVDefault",
        "PurchasePrice": 500,
            },
    "NameLocalization":
    {
        "es": "Limonada fresca",
        "ko": "신선한 레모네이드",
        "de": "Frische Limonade",
        "fr": "Limonade fraîche",
         // "hu": "",
         // "it": "",
        "ja": "フレッシュレモネード",
        "pt": "Limonada fresca",
         // "ru": "",
         // "tr": "",
        "zh": "鲜榨柠檬水",
    },
    "DescriptionLocalization":
    {
        "es": "¡Limonada recién exprimida!",
        "ko": "갓 짜낸 레모네이드!",
        "de": "Frisch gepresste Limonade!",
        "fr": "Limonade fraîchement pressée !",
         // "hu": "",
         // "it": "",
        "ja": "絞りたてのレモネード！",
        "pt": "Limonada espremida na hora!",
         // "ru": "",
         // "tr": "",
        "zh": "用新鲜的柠檬榨出来的！",
    }
}