{
    "Name": "Clary Sage",
    "Product": "Clary Sage",
    "SeedName": "Clary Sage Seeds",
    "SeedDescription": "Plant in summer. Takes 8 days takes to produce purple-pink flowers.",
    "Type": "Flower",
    "Seasons": ["summer"],
    "Phases": [1, 2, 3, 2],
    "RegrowthPhase": -1,
    "HarvestWithScythe": false,
    "TrellisCrop": false,
    "Colors": [
        "254, 86, 154, 255",
        "128, 79, 244, 255",
        "207, 151, 255, 255"
    ],
    "Bonus":
    {
        "MinimumPerHarvest": 1,
        "MaximumPerHarvest": 3,
        "MaxIncreasePerFarmLevel": 5,
        "ExtraChance": 0.0,
    },
    "SeedPurchasePrice": 100,
	"SeedPurchaseFrom": "GVDefault",
    "SeedNameLocalization":
    {
        "es": "Semillas de salvia esclárea",
        "ko": "클라리 세이지 씨앗",
        "de": "Muskatsalbei-Saat",
        "fr": "Graines de Sauge Sclarée",
        "hu": "Muskotályzsálya magvak",
         // "it": "",
        "ja": "クラリセージ",
        "pt": "Sementes de sálvia esclereira",
        "ru": "Семена шалфея мускатного",
         // "tr": "",
        "zh": "快乐鼠尾草种子",
    },
    "SeedDescriptionLocalization":
    {
        "es": "Plántalas en verano. Toma 8 días para producir flores de color rosa púrpura.",
        "ko": "여름에 심으세요. 8일후 보라색과 분홍색의 꽃이 핍니다.",
        "de": "Pflanze sie im Sommer. Wächst in 8 Tagen heran.",
        "fr": "Plantez en été. Prend 8 jours pour produire des fleurs rose-violet.",
        "hu": "Ezeket nyáron ültesd el. 8 nap alatt hoz egy lilás-rózsaszínes virágot.",
         // "it": "",
        "ja": "夏植えの花。8日かけて花を咲かせる。色は咲いてのおたのしみ。",
        "pt": "Plante-as no verão. Demoram 8 dias para produzir uma flor roxa/rosa.",
        "ru": "Сажайте летом. Через 8 дней вырастает розово-фиолетовый цветок.",
         // "tr": "",
        "zh": "夏天播种。8天后产出粉紫色的花朵。",
    }
}
