{
    "Name": "Dashi Stock",
    "Description": "Stewed down dashi broth that's often used as a base for soup.",
    "Category": "Cooking",
    "Edibility": 32,
    "EdibleIsDrink": false,
    "GiftTastes":
    {
        "Dislike": ["Abigail", "Alex", "Caroline", "Clint", "Demetrius", "Dwarf", "Elliott", "Emily", "George", "Gus", "Haley", "Harvey", "Jas", "Jodi", "Kent", "Krobus", "Leah", "Lewis", "Linus", "Marnie", "Maru", "Pam", "Penny", "Pierre", "Robin", "Sam", "Sandy", "Shane", "Vincent", "Willy", "Wizard"],
        "Hate": ["Evelyn", "Sebastian"],
    },
    "EdibleBuffs": null,
    "Price": 620,
    "IsColored": false,
    "Recipe":
    {
        "ResultCount": 1,
        "Ingredients": [
        {
            "Object": 152,
            "Count": 1,
        },
        {
            "Object": "Bonito Flakes",
            "Count": 1,
        },
        {
            "Object": "Soy Sauce",
            "Count": 1,
        }],
        "IsDefault": false,
    },
    "NameLocalization":
    {
        "es": "Caldo dashi",
        "ko": "다시 육수",
        "de": "Dashi-Brühe",
        "fr": "Dashi",
        // "hu": "",
        // "it": "",
        "ja": "出汁",
        "pt": "Estoque de Dashi",
        // "ru": "",
        // "tr": "",
        "zh": "日式高汤",
    },
    "DescriptionLocalization":
    {
        "es": "Guiso de caldo dashi que se usa a menudo como base para la sopa.",
        "ko": "수프 베이스로 쓰이는 삶은 다시 육수.",
        "de": "Gedünstete Dashi-Brühe, die oft als Grundlage für Suppen verwendet wird.",
        "fr": "Un bouillon clair réalisé à partir de plusieurs ingrédients séchés et infusés dans l'eau.",
        // "hu": "",
        // "it": "",
       "ja": "スープのベースとしてよく使われる出汁を煮詰めたもの。",
        "pt": "Caldo cozido de dashi que é frequentemente usado como base para sopa.",
        // "ru": "",
        // "tr": "",
        "zh": "这种炖煮的鱼汤或肉汤常常用作高汤汤底。",
    }
}