{
    "Name": "Baked Turkey with Risotto",
    "Description": "Juicy, tender turkey slices over piping hot risotto.",
    "Category": "Cooking",
    "Edibility": 215,
    "Price": 890,
    "IsColored": false,
    "Recipe":
    {
        "ResultCount": 1,
        "Ingredients": [
        {
            "Object": "Cooked Turkey",
            "Count": 1,
        },
        {
            "Object": 649,
            "Count": 1,
        },
        {
            "Object": 404,
            "Count": 1,
        }, ],
        "CanPurchase": true,
        "PurchaseFrom": "GVDefault",
        "PurchasePrice": 725,
    },
    "NameLocalization":
    {
        "es": "Pavo asado con risotto",
        "ko": "칠면조 리조또",
        // "de": "",
        "fr": "Dinde au four avec risotto",
        "hu": "Sült pulyka rizottóval",
        // "it": "",
        "ja": "ローストターキーのリゾット",
        "pt": "Peru assado com risoto",
        // "ru": "",
        // "tr": "",
        "zh": "烤火鸡配意式烩饭",
    },
    "DescriptionLocalization":
    {
        "es": "Rebanadas de pavo tiernas y jugosas sobre risotto bien caliente.",
        "ko": "뜨거운 리조또와 부드럽고 맛있는 칠면조 고기의 조화.",
        // "de": "",
        "fr": "Tranches de dinde juteuse, tendre sur un risotto brûlant.",
        "hu": "Lédús, zamatos pulykaszeletek forró rizottóval.",
        // "it": "",
        "ja": "パイで包んだリゾット。ジューシーで柔らかいターキーのスライスが入っている。",
        "pt": "Fatias de peru suculentas e macias sobre risoto quente.",
        // "ru": "",
        // "tr": "",
        "zh": "鲜嫩多汁的火鸡切片，配上滚烫的意大利烩饭。",
    },
    "DisableWithMod": "HadiZosa.BFAVnewmeat"
}