{
    "Name": "Toast Hawaii",
    "Description": "Toast with cheese and a pineapple slice",
    "Category": "Cooking",
    "Edibility": 56,
    "EdibleIsDrink": false,
    "EdibleBuffs": null,
    "Price": 800,
    "IsColored": false,
    "GiftTastes":
    {
        "Love": ["Marlon"],
        "Like": ["Abigail", "Alex", "Caroline", "Clint", "Demetrius", "Dwarf", "Elliott", "Emily", "Evelyn", "George", "Gus", "Haley", "Harvey", "Jas", "Jodi", "Kent", "Krobus", "Leah", "Lewis", "Linus", "Marnie", "Pam", "Penny", "Pierre", "Robin", "Sam", "Sandy", "Sebastian", "Shane", "Vincent", "Willy", "Wizard"],
        "Dislike": ["Maru"],
    },
    "Recipe":
    {
        "ResultCount": 1,
        "Ingredients": [
        {
            "Object": "Toast",
            "Count": 1,
        },
        {
            "Object": 832,
            "Count": 1,
        },
        {
            "Object": "Pork",
            "Count": 1,
        },
        {
            "Object": 424,
            "Count": 1,
        }],
        "CanPurchase": true,
        "PurchaseFrom": "GVDefault",
        "PurchasePrice": 1200,
        "PurchaseRequirements": ["y 2",
            "n willyHours",
        ],
    },
    "NameLocalization":
    {
        "es": "Tostada Hawaii",
        "ko": "하와이 토스트",
        "de": "Toast Hawaii",
        "fr": "Toast Hawaï",
        "hu": "Hawaii pírítós",
        // "it": "",
        // "ja": "",
        // "pt": "",
        // "ru": "",
        // "tr": "",
        "zh": "夏威夷吐司",
    },
    "DescriptionLocalization":
    {
        "es": "Tostada con queso y una rodaja de piña.",
        "ko": "치즈와 파인애플 조각으로 만든 토스트.",
        "de": "Toast belegt mit Schinken und Ananas, überbacken mit Käse",
        "fr": "Pain grillé avec du fromage et une tranche d'ananas.",
        "hu": "Egy sajtos-ananászos pirítós.",
        // "it": "",
        // "ja": "",
        // "pt": "",
        // "ru": "",
        // "tr": "",
        "zh": "奶酪吐司和菠萝片。",
    }
}