{
    "Name": "Canned Lemon Tea",
    "Description": "Lemon flavored tea, in a can!",
    "Category": "Cooking",
    "Edibility": 20,
    "EdibleIsDrink": true,
    "EdibleBuffs": null,
    "Price": 50,
    "IsColored": false,
    "GiftTastes":
    {
        "Like": ["Abigail", "Alex", "Caroline", "Clint", "Demetrius", "Dwarf", "Elliott", "Emily", "Evelyn", "George", "Gus", "Harvey", "Jodi", "Kent", "Leah", "Lewis", "Linus", "Marnie", "Maru", "Pam", "Penny", "Pierre", "Robin", "Sam", "Sandy", "Sebastian", "Shane", "Wizard"],
        "Neutral": ["Haley", "Jas", "Vincent"],
        "Dislike": ["Krobus", "Willy"],
    },
    "Recipe":
    {
        "ResultCount": 1,
        "Ingredients": [
        {
            "Object": 815,
            "Count": 2,
        },
        {
            "Object": "Lemon",
            "Count": 1,
        }],
        "CanPurchase": true,
        "PurchaseFrom": "GVDefault",
        "PurchasePrice": 100,
    },
    "NameLocalization":
    {
        "es": "Té de limón enlatado",
        "ko": "캔 레몬티",
        "de": "Zitronentee aus der Dose",
        "fr": "Conserve de thé au citron",
        "hu": "Dobozos citromos tea",
        // "it": "",
        "ja": "レモンティー缶",
        "pt": "Chá de limão enlatado",
        // "ru": "",
        // "tr": "",
        "zh": "罐装柠檬茶",
    },
    "DescriptionLocalization":
    {
        "es": "¡Té con sabor a limón, en una lata!",
        "ko": "캔에 든 레몬맛 티!",
        "de": "Wohlschmeckender Zitronentee aus der Dose.",
        "fr": "Du thé parfumé au citron, dans une boîte de conserve !",
        "hu": "Citrom ízű tea, egy dobozban!",
        // "it": "",
        "ja": "缶入りのレモン風味の紅茶！",
        "pt": "Chá com sabor de limão, dentro de um lata!",
        // "ru": "",
        // "tr": "",
        "zh": "柠檬味的茶，罐装的！",
    }
}