{
  "HarveyFacialHair": "True",
  "NoNose": "True",
  "FestivalOutfits": "True",
  "ExtraOutfits": "True",
  "FarmerBase": "True",
  "SeasonalFarmerBases": "True",
  "ShirtSpring": "WarmWeather",
  "ShirtSummer": "WarmWeather",
  "ShirtFall": "ColdWeather",
  "ShirtWinter": "ColdWeather",
  "ShoesSpring": "ColdWeather",
  "ShoesSummer": "WarmWeather",
  "ShoesFall": "WarmWeather",
  "ShoesWinter": "ColdWeather",
  "IslandSummerClothes": "True"
}