{
    "Name": "Stuffed Petals",
    "Description": "Tulip petals stuffed with goat cheese and herbs.",
    "Category": "Cooking",
    "Edibility": 45,
    "EdibleIsDrink": false,
    "EdibleBuffs": null,
    "Price": 350,
    "IsColored": false,
    "Recipe":
    {
        "ResultCount": 1,
        "Ingredients": [
        {
            "Object": 591,
            "Count": 1,
        },
        {
            "Object": "Lavender",
            "Count": 1,
        },
        {
            "Object": 426,
            "Count": 1,
        }, ],
        "IsDefault": false,
        "CanPurchase": false,
    },
    "NameLocalization":
    {
        "es": "Stuffed Petals",
        "ko": "꽃잎 스터프트",
        "de": "Gefüllte Blütenblätter",
        // "fr": "",
        "hu": "Töltött szirmok",
        // "it": "",
        "ja": "山羊乳の花びら詰め",
        "pt": "Pétalas Recheadas",
        "ru": "Фаршированные лепестки",
        // "tr": "",
        "zh": "香草乳酪",
    },
    "DescriptionLocalization":
    {
        "es": "Tulip petals stuffed with goat cheese and herbs.",
        "ko": "염소 치즈와 허브로 가득 찬 튤립 꽃잎 스터프트.",
        "de": "Tulpenblüten gefüllt mit Ziegenkäse und Kräutern.",
        // "fr": "",
        "hu": "Tulipán szirmok kecskesajttal, és fűszerekkel töltve.",
        // "it": "",
        "ja": "ヤギのチーズとハーブをチューリップの花びらに詰めた料理。",
        "pt": "Pétalas recheadas com queijo de cabra e ervas.",
        "ru": "Лепестки тюльпана, фаршированные козьим сыром и зеленью.",
        // "tr": "",
        "zh": "香草乳酪。填充了薰衣草和郁金香的山羊奶酪。",
    }
}