{
    "Name": "Mayhaw",
    "Product": "Mayhaw",
    "SaplingName": "Mayhaw Sapling",
    "SaplingDescription": "Takes 28 days to produce a mature mayhaw tree. Bears fruit in the spring. Only grows if the 8 surrounding tiles are empty.",

    "Season": "spring",
    "SaplingPurchaseFrom": "GVDefault",
    "SaplingPurchasePrice": 7500,
    "SaplingPurchaseRequirements": null,
}
