{
    "Name": "Cheesecake",
    "Description": "A classic dessert.",
    "Category": "Cooking",
    "Edibility": 72,
    "EdibleIsDrink": false,
    "EdibleBuffs": null,
    "Price": 690,
    "IsColored": false,
    "GiftTastes":
    {
        "Like": ["Abigail", "Alex", "Caroline", "Clint", "Demetrius", "Dwarf", "Elliott", "Emily", "Evelyn", "George", "Gus", "Haley", "Harvey", "Jas", "Jodi", "Leah", "Lewis", "Linus", "Marnie", "Maru", "Pam", "Penny", "Pierre", "Robin", "Sam", "Sandy", "Shane", "Vincent", "Wizard"],
        "Dislike": ["Kent", "Krobus", "Sebastian", "Willy"],
    },
    "Recipe":
    {
        "ResultCount": 1,
        "Ingredients": [
        {
            "Object": "Cream Cheese",
            "Count": 1,
        },
        {
            "Object": 246,
            "Count": 1,
        },
        {
            "Object": -6,
            "Count": 1,
        },
        {
            "Object": 400,
            "Count": 1,
        }],
        "CanPurchase": true,
        "PurchaseFrom": "GVDefault",
        "PurchasePrice": 2690,
        "PurchaseRequirements": ["HasCookingRecipe Cream-Cheese", "y 4"],
    },
    "NameLocalization":
    {
        "es": "Cheesecake",
        "ko": "치즈 케이크",
        "de": "Käsekuchen",
        "fr": "Gâteau au fromage",
        "hu": "Sajttorta",
        // "it": "",
        "ja": "チーズケーキ",
        "pt": "Bolo de queijo",
        // "ru": "",
        // "tr": "",
        "zh": "芝士蛋糕",
    },
    "DescriptionLocalization":
    {
        "es": "Un postre clásico.",
        "ko": "클래식한 디저트.",
        "de": "Ein klassischer Kuchen für den Nachtisch.",
        "fr": "Un dessert classique.",
        "hu": "Egy klasszikus desszert.",
        // "it": "",
        "ja": "定番のデザート。",
        "pt": "Uma sobremesa clássica.",
        // "ru": "",
        // "tr": "",
        "zh": "一款经典的甜点",
    }
}