{
    "Name": "Brownie",
    "Description": "It's filled with yummy fudge!",
    "Category": "Cooking",
    "Edibility": 82,
    "EdibleIsDrink": false,
    "EdibleBuffs": null,
    "Price": 835,
    "IsColored": false,
    "GiftTastes":
    {
        "Like": ["Abigail", "Alex", "Caroline", "Clint", "Demetrius", "Dwarf", "Elliott", "Emily", "Evelyn", "Gus", "Haley", "Harvey", "Jas", "Jodi", "Kent", "Leah", "Lewis", "Linus", "Marnie", "Maru", "Pam", "Penny", "Pierre", "Robin", "Sam", "Sandy", "Shane", "Vincent", "Wizard"],
        "Neutral": ["George", "Sebastian"],
        "Dislike": ["Krobus", "Willy"],
    },
    "Recipe":
    {
        "ResultCount": 1,
        "Ingredients": [
        {
            "Object": -6,
            "Count": 1,
        },
        {
            "Object": 245,
            "Count": 1,
        },
        {
            "Object": -5,
            "Count": 1,
        },
        {
            "Object": "Chocolate",
            "Count": 1,
        },
        {
            "Object": 246,
            "Count": 1,
        }],
        "CanPurchase": true,
        "PurchaseFrom": "GVDefault",
        "PurchasePrice": 2835,
        "PurchaseRequirements": ["HasCookingRecipe Chocolate",
            "r 0.25",
            "y 4",
        ]
    },
    "NameLocalization":
    {
        "es": "Brownie",
        "ko": "브라우니",
        "de": "Brownie",
        "fr": "Brownie",
        "hu": "Brownie",
        // "it": "",
        "ja": "ブラウニー",
        "pt": "Brownie",
        // "ru": "",
        // "tr": "",
        "zh": "布朗尼蛋糕",
    },
    "DescriptionLocalization":
    {
        "es": "¡Está lleno un delicioso dulce de azúcar!",
        "ko": "맛있는 퍼지로 가득 차 있어요!",
        "de": "Gefüllt mit leckerem Fudge!",
        "fr": "C'est rempli de chocolat crémeux appétissant !",
        "hu": "Ízletes tejkaramellával van töltve!",
        // "it": "",
        "ja": "おいしいファッジがたっぷり詰まっている！",
        "pt": "Está cheio de um delicioso Fudge!",
        // "ru": "",
        // "tr": "",
        "zh": "里面全是美味的乳脂软糖！",
    }
}