{
	"6372005/t 1000 2100/Hn AquariumDonated:La/Hl AquariumDonated:Tui/k 6372006": "SunRoom/13 31/Curator 16 21 1 farmer -100 -100 0 Wizard -100 -100 0/skippable/animate Curator false true 300 28 29 30 31 30 29 30 31 30 29 28 28 28 28/pause 500/playSound doorOpen/warp farmer 13 37/pause 500/move farmer 0 -8 0 true/viewport move 0 -1 4000/pause 4000/faceDirection farmer 3/pause 400/faceDirection farmer 1/pause 400/faceDirection farmer 2/pause 400/emote farmer 32/pause 500/move farmer 0 -8 1 true/viewport move 0 -1 4000/pause 4000/playSound dwop/pause 500/stopAnimation Curator 3/warp Curator 15 21 3/pause 100/faceDirection Curator 3/showFrame Curator 12/pause 500/speak Curator \"Oh @! I didn't hear you come in.$0#$b#I was just enjoying a nice cup of tea.$1\"/pause 750/speak Curator \"Oh well... duty calls.$0#$b#As a matter of fact, I was just going to set up our latest donation.$0#$b#Would you care to join me?$3\"/pause 250/emote farmer 32/pause 500/speak Curator \"Lovely. It's just over here...$0\"/pause 250/viewport move 0 -1 4000/move Curator -1 0 3 true/move farmer -1 0 1 true/move Curator 0 -3 3/move farmer 0 -3 1/pause 500/stopMusic/pause 2000/speak Curator \"We have to step through this magic circle, to teleport where we are going.$0\"/pause 500/emote farmer 28/pause 500/speak Curator \"Don't you worry, it's perfectly safe!$1#$b#I will go first, then you can follow me.$0\"/pause 500/move Curator -1 0 3/screenflash 2/warp Curator -100 -100 0/playSound wand/pause 250/jump farmer 9/pause 250/emote farmer 16/pause 750/emote farmer 40/pause 1000/move farmer 1 0 1/screenflash 2/warp farmer -100 -100/playSound wand/pause 1000/fade/viewport -1000 -1000/pause 500/changeLocation SpiritOasis/viewport 24 23/warp Curator 22 22 1/faceDirection Curator 1/pause 250/warp farmer 24 22 2/playSound wand/pause 250/playMusic EmilyDream/jump Curator 7/emote farmer 16/pause 500/faceDirection farmer 3/speak Curator \"See that wasn't so bad, now was it?$0\"/pause 500/quickquestion #It was horrible!#What just happened?!#I guess...#Yea nothing to it.(break)speak Curator \"Come now, you're still in one piece.$0\"(break)speak Curator \"You teleported to a new location.$0\"(break)speak Curator \"Right.$0\"(break)speak Curator \"Hee hee that's the spirit!$1\"/pause 500/speak Curator \"I already set up everything while I waited for you.$0#$b#Come take a look.$0\"/pause 250/viewport move 0 1 2000/move Curator 1 0 1 true/move farmer 1 0 3 true/pause 250/move Curator 0 1 2/move farmer 0 2 2/pause 500/speak Curator \"This 'La' sure is a beautiful creature...$0\"/pause 500/stopMusic/pause 500/playSound thunder_small/ambientLight 0 255 255/jump Curator 7 true/jump farmer 7 true/showFrame farmer 94/pause 250/showFrame farmer 0/pause 250/faceDirection Curator 1/faceDirection farmer 3/screenflash 2/showFrame Wizard 16/warp Wizard 24 22/faceDirection Curator 0 true/faceDirection farmer 0 true/jump Curator 7 true/jump farmer 7 true/pause 250/showFrame Wizard 0/pause 500/speak Wizard \"What have you done?!$1\"/pause 500/emote farmer 28 true/emote Curator 28 true/pause 500/speak Wizard \"Don't you know that this fish is the Ocean Spirit?!$0\"/pause 500/quickquestion #What is going on?!#I didn't do anything!#Ocean Spirit? What does that mean?(break)speak Wizard \"You don't even know what you're meddling with...$0\"(break)speak Wizard \"Enough!$0\"(break)speak Wizard \"There is no time for a history lesson...$0\"/pause 500/speak Wizard \"You must reconnect the Moon and Ocean Spirits.$0\"/pause 250/emote farmer 8/showFrame Curator 20/pause 50/showFrame Curator 21/pause 50/animate Curator false true 500 22 23/pause 500/speak Curator \"What have I done...$7\"/pause 250/speak Wizard \"The Moon and Ocean Spirit were connected until recently.$0#$b#Go back to where you found this fish and find the Moon Spirit.$0#$b#Then come back here and reconnect it with the Ocean Spirit!$0\"/pause 500/question fork0 \"...#I didn't find this fish, I don't know where to look!#Oh you mean the little pond in the Secret Woods?\"/fork 6372005_LaHint/pause 500/speak Wizard \"The Secret Woods? Yes of course, you must travel there at once!$1#$b#Find the Moon Spirit and bring it back here. I will do what I can to maintain the balance in the meantime.$0\"/pause 500/stopAnimation Curator 0/pause 250/showFrame Wizard 16/pause 250/screenflash 2/playSound wand/warp Wizard -100 -100/pause 500/faceDirection Curator 1 true/faceDirection farmer 3 true/pause 250/emote Curator 60 true/emote farmer 60/pause 1000/end",
    "6372006/t 1000 2100/Hn AquariumDonated:Tui/Hl AquariumDonated:La/k 6372005": "SunRoom/13 31/Curator 16 21 1 farmer -100 -100 0 Wizard -100 -100 0/skippable/animate Curator false true 300 28 29 30 31 30 29 30 31 30 29 28 28 28 28/pause 500/playSound doorOpen/warp farmer 13 37/pause 500/move farmer 0 -8 0 true/viewport move 0 -1 4000/pause 4000/faceDirection farmer 3/pause 400/faceDirection farmer 1/pause 400/faceDirection farmer 2/pause 400/emote farmer 32/pause 500/move farmer 0 -8 1 true/viewport move 0 -1 4000/pause 4000/playSound dwop/pause 500/stopAnimation Curator 3/warp Curator 15 21 3/pause 100/faceDirection Curator 3/showFrame Curator 12/pause 500/speak Curator \"Oh @! I didn't hear you come in.$0#$b#I was just enjoying a nice cup of tea.$1\"/pause 750/speak Curator \"Oh well... duty calls.$0#$b#As a matter of fact, I was just going to set up our latest donation.$0#$b#Would you care to join me?$3\"/pause 250/emote farmer 32/pause 500/speak Curator \"Lovely. It's just over here...$0\"/pause 250/viewport move 0 -1 4000/move Curator -1 0 3 true/move farmer -1 0 1 true/move Curator 0 -3 3/move farmer 0 -3 1/pause 500/stopMusic/pause 2000/speak Curator \"We have to step through this magic circle, to teleport where we are going.$0\"/pause 500/emote farmer 28/pause 500/speak Curator \"Don't you worry, it's perfectly safe!$1#$b#I will go first, then you can follow me.$0\"/pause 500/move Curator -1 0 3/screenflash 2/warp Curator -100 -100 0/playSound wand/pause 250/jump farmer 9/pause 250/emote farmer 16/pause 750/emote farmer 40/pause 1000/move farmer 1 0 1/screenflash 2/warp farmer -100 -100/playSound wand/pause 1000/fade/viewport -1000 -1000/pause 500/changeLocation SpiritOasis/viewport 24 23/warp Curator 22 22 1/faceDirection Curator 1/pause 250/warp farmer 24 22 2/playSound wand/pause 250/playMusic EmilyDream/jump Curator 7/emote farmer 16/pause 500/faceDirection farmer 3/speak Curator \"See that wasn't so bad, now was it?$0\"/pause 500/quickquestion #It was horrible!#What just happened?!#I guess...#Yea nothing to it.(break)speak Curator \"Come now, you're still in one piece.$0\"(break)speak Curator \"You teleported to a new location.$0\"(break)speak Curator \"Right.$0\"(break)speak Curator \"Hee hee that's the spirit!$1\"/pause 500/speak Curator \"I already set up everything while I waited for you.$0#$b#Come take a look.$0\"/pause 250/viewport move 0 1 2000/move Curator 1 0 1 true/move farmer 1 0 3 true/pause 250/move Curator 0 1 2/move farmer 0 2 2/pause 500/speak Curator \"This 'Tui' sure is a beautiful creature...$0\"/pause 500/stopMusic/pause 500/playSound thunder_small/ambientLight 0 255 255/jump Curator 7 true/jump farmer 7 true/showFrame farmer 94/pause 250/showFrame farmer 0/pause 250/faceDirection Curator 1/faceDirection farmer 3/screenflash 2/showFrame Wizard 16/warp Wizard 24 22/faceDirection Curator 0 true/faceDirection farmer 0 true/jump Curator 7 true/jump farmer 7 true/pause 250/showFrame Wizard 0/pause 500/speak Wizard \"What have you done?!$1\"/pause 500/emote farmer 28 true/emote Curator 28 true/pause 500/speak Wizard \"Don't you know that this fish is the Moon Spirit?!$0\"/pause 500/quickquestion #What is going on?!#I didn't do anything!#Moon Spirit? What does that mean?(break)speak Wizard \"You don't even know what you're meddling with...$0\"(break)speak Wizard \"Enough!$0\"(break)speak Wizard \"There is no time for a history lesson...$0\"/pause 500/speak Wizard \"You must reconnect the Moon and Ocean Spirits.$0\"/pause 250/emote farmer 8/showFrame Curator 20/pause 50/showFrame Curator 21/pause 50/animate Curator false true 500 22 23/pause 500/speak Curator \"What have I done...$7\"/pause 250/speak Wizard \"The Moon and Ocean Spirit were connected until recently.$0#$b#Go back to where you found this fish and find the Ocean Spirit.$0#$b#Then come back here and reconnect it with the Moon Spirit!$0\"/pause 500/question fork0 \"...#I didn't find this fish, I don't know where to look!#Oh you mean the little pond in the Secret Woods?\"/fork 6372005_LaHint/pause 500/speak Wizard \"The Secret Woods? Yes of course, you must travel there at once!$1#$b#Find the Ocean Spirit and bring it back here. I will do what I can to maintain the balance in the meantime.$0\"/pause 500/stopAnimation Curator 0/pause 250/showFrame Wizard 16/pause 250/screenflash 2/playSound wand/warp Wizard -100 -100/pause 500/faceDirection Curator 1 true/faceDirection farmer 3 true/pause 250/emote Curator 60 true/emote farmer 60/pause 1000/end",
    "6372007/t 1000 2100/Hn AquariumDonated:Tui/Hn AquariumDonated:La": "SunRoom/13 31/Curator 13 21 1 farmer -100 -100 0 Wizard -100 -100 0/skippable/pause 500/playSound doorOpen/warp farmer 13 37/pause 500/move farmer 0 -7 0 true/viewport move 0 -1 2000/pause 500/move Curator 0 1 2/speak Curator \"@ you're here!$0\"/pause 500/speak Curator \"The wizard is waiting for us on the other side, we must not keep him waiting.$0\"/pause 250/jump farmer 5/move Curator 0 -3 2 true/move farmer 0 -3 2 true/viewport move 0 -1 2000 true/stopMusic/fade/viewport -1000 -1000/playSound wand/pause 500/warp Curator -100 -100 0/pause 250/playSound wand/warp farmer -100 -100 0/pause 500/changeLocation SpiritOasis/ambientLight 0 255 255/viewport 24 25/warp Wizard 24 24 2/animate Wizard false true 500 16 18 18 20 20 18 18 16 16 16 16/playMusic WizardSong/pause 1000/playSound thunder/pause 5000/playSound thunder/pause 750/playSound thunder/pause 1000/screenflash 2/playSound wand/warp Curator 23 22 2/pause 500/stopAnimation Wizard 8/pause 250/screenflash 2/playSound wand/warp farmer 25 22 2/pause 500/speak Wizard \"Good you're both here.$0\"/pause 500/playSound thunder/speak Wizard \"I have already reunited the Tui and La in this pond.$0#$b#All that remains now is to perform the final part of the ritual.$0\"/pause 250/faceDirection farmer 3/faceDirection Curator 1/pause 250/emote farmer 16/emote Curator 16/faceDirection Wizard 0/pause 250/faceDirection farmer 2/faceDirection Curator 2/pause 250/animate Wizard false true 500 16 18 18 20 20 18 18 16 16 16 16/pause 500/playSound thunder/message \"The Wizard is in a trance, mumbling inaudible sentences.\"/pause 200/playSound healSound/jump Curator 5/jump farmer 5/pause 100/playSound healSound/stopMusic/ambientLight 0 200 200/pause 500/ambientLight 0 100 100/pause 500/ambientLight 0 0 0/pause 500/stopAnimation Wizard 18/pause 500/playMusic EmilyDream/speak Wizard \"It is done...$0\"/pause 500/faceDirection farmer 3/faceDirection Curator 1/pause 250/emote farmer 40/emote Curator 40/pause 500/faceDirection farmer 2/faceDirection Curator 2/faceDirection Wizard 0/pause 500/speak Wizard \"If these two fish would have been separated for much longer it would have resulted in catastrophe!$0\"/pause 500/emote farmer 28/emote Curator 28/pause 500/speak Wizard \"I will leave the protection of this area to you now.$0\"/pause 500/showFrame Wizard 0/pause 250/showFrame Wizard 16/pause 500/screenflash 2/playSound wand/warp Wizard -100 -100/pause 500/faceDirection farmer 3/faceDirection Curator 1/pause 500/speak Curator \"Well that was all very dramatic...$0\"/pause 500/speak Curator \"Can I count on you to help me keep this place safe lad?^Can you count on you to help me keep this place safe lass?$0\"/pause 500/quickquestion #Yes, of course.#No, you're on your own.(break)emote Curator 32(break)emote Curator 60/pause 1000/end"
}