{
	"6372004/t 1000 2100/Hn AquariumDonated:SmallMantaray": "EmilyTheme/31 54/Curator 33 52 0 farmer -100 -100 0/skippable/pause 500/playSound doorOpen/warp farmer 31 59/pause 500/move farmer 0 -3 0/pause 300/faceDirection Curator 2/speak Curator \"Ah @! How are you today?$0\"/pause 250/move farmer 0 -2 1/move Curator 0 2 3/pause 250/speak Curator \"I was just about to check up on one of our new specimen. Would you care to join me?$0\"/pause 250/emote farmer 32/pause 500/speak Curator \"Excellent! Right this way.$1\"/pause 250/move Curator 3 0 0 true/move farmer 3 0 0 true/pause 250/fade/viewport -1000 -1000/warp Curator 30 40 0/warp farmer 33 40 0/pause 500/viewport 31 40/pause 500/speak Curator \"Look at the size of that manta. A majestic creature is it not?$0#$b#I had this enormous tank built just for this occasion.$1\"/pause 500/faceDirection farmer 3 true/emote farmer 16/pause 250/faceDirection Curator 1 true/speak Curator \"Tell me something lad...^Tell me something lass...$0#$b#Are you the one that caught it?$3\"/pause 250/question fork0 \"...#Yes, I caught it with my fishing rod!#No, that wasn't me...\"/fork 6372004_MantaYes/pause 500/speak Curator \"Oh that is a shame...$0#$b#I would have liked to know the story about how someone managed to catch a manta...$4\"/pause 250/faceDirection Curator 0 true/emote farmer 40/pause 100/faceDirection farmer 0/pause 500/speak Curator \"It seems to be thriving well here.$0\"/pause 250/faceDirection Curator 1 true/pause 50/faceDirection farmer 3 true/pause 500/speak Curator \"I should let you get back to it. Enjoy the rest of your visit to the Aquarium!$1\"/pause 250/move Curator -6 0 3 true/faceDirection farmer 0/emote farmer 32/pause 1000/end",
	"6372004_MantaYes": "pause 500/jump Curator 7/pause 250/speak Curator \"With your fishing rod?!$6#$b#Such a large beast, caught with a fishing rod...$2\"/pause 500/speak Curator \"Willy was right about you...$0#$b#You are an extraordinary angler!$4\"/pause 100/jump farmer 5/pause 500/emote farmer 20/pause 500/faceDirection Curator 0 true/pause 100/faceDirection farmer 0/pause 500/speak Curator \"It seems to be thriving well here.$0\"/pause 250/faceDirection Curator 1 true/pause 50/faceDirection farmer 3 true/pause 500/speak Curator \"I should let you get back to it. Enjoy the rest of your visit to the Aquarium!$1\"/pause 250/move Curator -6 0 3 true/faceDirection farmer 0/emote farmer 32/pause 1000/end"
}