{
    "Name": "Cooked Chicken",
    "Description": "A whole rotisserie chicken, ready to be used in recipes.",
    "Category": "Cooking",
    "Edibility": 45,
    "Price": 160,
    "IsColored": false,
    "GiftTastes":
    {
        "Dislike": ["Abigail", "Alex", "Caroline", "Clint", "Demetrius", "Dwarf", "Elliott", "Emily", "Evelyn", "George", "Gus", "Haley", "Harvey", "Jas", "Jodi", "Kent", "Krobus", "Leah", "Lewis", "Linus", "Marnie", "Maru", "Pam", "Penny", "Pierre", "Robin", "Sam", "Sandy", "Shane", "Vincent", "Willy", "Wizard"],
        "Hate": ["Sebastian"],
    },
    "Recipe":
    {
        "ResultCount": 1,
        "Ingredients": [
        {
            "Object": "Chicken",
            "Count": 1,
        },
        {
            "Object": "Seasonings",
            "Count": 1,
        }, ],
        "CanPurchase": true, "PurchaseFrom": "GVDefault",
    },
    "CanPurchase": true,
    "PurchaseFrom": "GVDefault",
    "PurchasePrice": 160,
    "PurchaseRequirements": null,
    "NameLocalization":
    {
        "es": "Carne de pollo cocinada",
        "ko": "조리된 닭고기",
        // "de": "",
        "fr": "Poulet cuit",
        "hu": "Sült csirke",
        // "it": "",
        "ja": "調理済み鶏肉",
        "pt": "Frango cozido",
        "ru": "Приготовленная курица",
        // "tr": "",
        "zh": "熟鸡肉",
    },
    "DescriptionLocalization":
    {
        "es": "Un pollo asado entero, listo para ser utilizado en recetas.",
        "ko": "통째로 구운 닭고기. 조리될 준비가 되었습니다.",
        // "de": "",
        "fr": "Un poulet entier rôti, prêt à être utilisé dans des recettes.",
        "hu": "Egy egész grillcsirke, felhasználásra készen.",
        // "it": "",
        "ja": "レシピですぐに使えるよう下ごしらえが済んだまるごと一羽の鶏。",
        "pt": "Um frango inteiro assado, pronto para ser usado em receitas.",
        "ru": "Зажаренная целиком курица гриль, готовая для использования в рецептах.",
        // "tr": "",
        "zh": "一整只熟鸡，可以用于烹饪。",
    },
    "ContextTags": [
        "cooked_meat",
        "meat_item",
    ]  
}
