{
    "Name": "Combustion Generator",
    "Description": "A Generator that converts 5 coal into 1 batt. pack or Solar & Void essence to produce 3 Batt. Packs.",
    "Price": 0,
    "ProvidesLight": false,
    "ReserveExtraIndexCount": 6,
    "Recipe":
    {
        "ResultCount": 1,
        "Ingredients": [
		{
            "Object": "Brick",
            "Count": 4,
        },
        {
            "Object": 335,
            "Count": 3,
        },
        {
            "Object": 338,
            "Count": 3,
        },
        {
            "Object": 767,
            "Count": 8,
        }, ],
        "CanPurchase": false,
		"IsDefault": false,
    },
	"NameLocalization": {
		"zh": "燃煤发电机",
		"de": "Verbrennungs-Generator"
		},
    "DescriptionLocalization": {
		"zh": "燃烧煤炭将其能量转化为电池组，每次消耗5块煤炭。",
		"de": "Ein Generator, der Batterien produziert. Benötigt zum Betrieb 5x Kohle für 1x Batterie - alternativ 1x Sonnen- oder Schattenessenz für 3 Batterien."
		}
}