﻿{
"hasNotMods": [
"FlashShifter.StardewValleyExpandedALL"
],
"onlyWarps": [

{
"name": "Desert",
"addWarps": [
	"49 24 GhostTown 1 33",
	"49 25 GhostTown 1 34",
	"49 26 GhostTown 1 35",
	"49 27 GhostTown 1 36",
	"49 28 GhostTown 1 37"
]
}
]  
}