{
// Change introductory event if bus not unlocked
  "67/n ccVault": "none/4 5/farmer 4 9 0 Sandy 2 5 2/skippable/move farmer 0 -2 0/emote Sandy 8/speak Sandy \"A... customer?\"/speed Sandy 4/move Sandy 2 0 2/speed Sandy 4/move Sandy 0 1 2/emote Sandy 16/speak Sandy \"Hi! Welcome to 'Sandy's Oasis'!#$b#Hey, you look just like the new farmer that Emily wrote to me about!#$b#Then... the bus line to Stardew Valley is back in service!$h#$b#Oh, I'm so happy!$h\"/emote Sandy 32/move Sandy 0 -1 0/move Sandy -2 0 2/emote Sandy 32/end dialogue Sandy \"Please visit again soon, I get so bored out here.\"",
  "67/n jojaVault": "none/4 5/farmer 4 9 0 Sandy 2 5 2/skippable/move farmer 0 -2 0/emote Sandy 8/speak Sandy \"A... customer?\"/speed Sandy 4/move Sandy 2 0 2/speed Sandy 4/move Sandy 0 1 2/emote Sandy 16/speak Sandy \"Hi! Welcome to 'Sandy's Oasis'!#$b#Hey, you look just like the new farmer that Emily wrote to me about!#$b#Then... the bus line to Stardew Valley is back in service!$h#$b#Oh, I'm so happy!$h\"/emote Sandy 32/move Sandy 0 -1 0/move Sandy -2 0 2/emote Sandy 32/end dialogue Sandy \"Please visit again soon, I get so bored out here.\"",
  "13730001/l ccVault l jojaVault/k 67": "none/4 5/farmer 4 9 0 Sandy 2 5 2/skippable/move farmer 0 -2 0/emote Sandy 8/speak Sandy \"A... customer?\"/speed Sandy 4/move Sandy 2 0 2/speed Sandy 4/move Sandy 0 1 2/emote Sandy 16/speak Sandy \"Hi! Welcome to 'Sandy's Oasis'!#$b#Hey, you look just like the new farmer that Emily wrote to me about!#$b#Then... the bus line to Stardew Valley is back in service?$h#$b#It's not? You mean... you walked the whole way?!$s\"/emote Sandy 16/speed Sandy 4/move Sandy 0 -1 0/speed Sandy 4/move Sandy -2 0 2/speed Sandy 4/move Sandy 2 0 1/speed Sandy 4/move Sandy 0 1 2/speak Sandy \"You must be thirsty! Here, have some ice cold milk. [184]#$b#Tasty, huh?$h#$b#You take care of yourself now!\"/emote Sandy 32/end dialogue Sandy \"Please visit again soon, I get so bored out here.\"",
  
  // Warning about Ghost Town
  "13730002/t 1700 2600": "none/4 5/farmer 4 9 0 Sandy 2 5 2/skippable/move farmer 0 -2 0/emote Sandy 16/speak Sandy \"Oh! You're out late today!#$b#Not that I'm unhappy to see you, of course.$h#$b#Just be careful if you decide to go wandering over by the Ghost Town.$0#$b#The desert sun keeps the ghosts underground during the day. But after dark, they start coming out in droves!\"/emote farmer 16/speak Sandy \"Just promise me you'll be careful. Okay, sweetie?$h\"/end",
  
  // Phantom Bus Story
  "13730003/l ccVault l jojaVault/f Sandy 20": "none/4 5/farmer 4 9 0 Sandy 2 5 2/skippable/move farmer 0 -4 3/faceDirection Sandy 1/speak Sandy \"Hi, sweetie! How's the farm?#$b#Glad to hear it!$h\"/emote farmer 32/speak Sandy \"By the way, has anyone told you the story behind the Phantom Bus yet?$0#\"/emote farmer 8/speak Sandy \"A lot of people think it's spooky. I think it's kind of funny!$h#$b#So anyway, during the Elemental Wars, the Oasis was cursed so that no one could get in or out.#$b# Eventually a foreign wizardess made a spell that could be cast on vehicles, like buses or trains, to allow them to cross the boundary.$0#$b#But there was a local wizard who just couldn't stand waiting for the bus. Said the bus was never around when he needed it!$h#$b#So he made a bus out of pure magic -- it could cross the boundary any time he wanted. Not a bad idea, huh?#$b#But the locals weren't ready for that much magic. The Oasis is still cursed, you know? They didn't want to risk getting trapped in here.#$b#So after the real bus broke down, nobody's come to the Oasis. Except for the few people with warp totems...$s\"/emote Sandy 16/speak Sandy \"Sorry for rambling a bit.$0#$b#I'm glad you're brave enough to make the trip!$h\"/emote farmer 32/end",
}