{
    "Name": "Cooked Dragon Meat",
    "Description": "A greenish dragon steak, already cooked and ready to be used in recipes.",
    "Category": "Cooking",
    "Edibility": 80,
    "Price": 1200,
    "IsColored": false,
    "GiftTastes":
    {
        "Dislike": ["Abigail", "Alex", "Caroline", "Clint", "Demetrius", "Dwarf", "Elliott", "Emily", "Evelyn", "George", "Gus", "Haley", "Harvey", "Jas", "Jodi", "Kent", "Krobus", "Leah", "Lewis", "Linus", "Marnie", "Maru", "Pam", "Penny", "Pierre", "Robin", "Sam", "Sandy", "Shane", "Vincent", "Willy", "Wizard"],
        "Hate": ["Sebastian"],
    },
    "Recipe":
    {
        "ResultCount": 1,
        "Ingredients": [
        {
            "Object": "Dragon Meat",
            "Count": 1,
        },
        {
            "Object": "Seasonings",
            "Count": 1,
        }, ],
        "CanPurchase": true, "PurchaseFrom": "GVDefault",
    },
    "CanPurchase": true,
    "PurchaseFrom": "GVDefault",
    "PurchasePrice": 2000,
    "PurchaseRequirements": [ "f Wizard 1500"],
    "NameLocalization":
    {
        "es": "Carne cocinada de dragón",
        "ko": "구운 드래곤고기",
        // "de": "",
        "fr": "Viande de dragon cuite",
        "hu": "Sült sárkányhús",
        // "it": "",
        // "ja": "",
        // "pt": "",
        // "ru": "",
        // "tr": "",
         "zh": "熟制龙肉",
    },
    "DescriptionLocalization":
    {
        "es": "Un filete de dragón verdoso, ya cocinado y listo para ser utilizado en recetas.",
        "ko": "녹색의 드래곤 스테이크. 완전히 구워져서 조리될 준비가 되었습니다.",
        // "de": "",
        "fr": "Un steak de dragon verdâtre, déjà cuit et prêt à être utilisé dans des recettes.",
        "hu": "Egy zöldes színű sárkány steak, megsütve, felhasználásra készen.",
        // "it": "",
        // "ja": "",
        // "pt": "",
        // "ru": "",
        // "tr": "",
         "zh": "一种绿龙的肉排，已经烹调好，可以在食谱中使用。",
    },
    "ContextTags": [
        "cooked_meat",
        "meat_item",
    ],    
    "DisableWithMod": "HadiZosa.BFAVnewmeat" 
}
