{
    "Name": "Grilled Zucchini",
    "Description": "A plate of grilled zucchini.",
    "Category": "Cooking",
    "Edibility": 52,
    "EdibleIsDrink": false,
    "EdibleBuffs": null,
    "Price": 540,
    "IsColored": false,
    "GiftTastes":
    {
        "Like": ["Abigail", "Alex", "Caroline", "Clint", "Demetrius", "Dwarf", "Elliott", "Emily", "Evelyn", "George", "Gus", "Haley", "Harvey", "Jas", "Jodi", "Kent", "Leah", "Lewis", "Linus", "Marnie", "Maru", "Pam", "Penny", "Pierre", "Robin", "Sam", "Sandy", "Sebastian", "Shane", "Vincent", "Wizard"],
        "Dislike": ["Krobus", "Willy"],
    },
    "Recipe":
    {
        "ResultCount": 1,
        "Ingredients": [
        {
            "Object": "Zucchini",
            "Count": 3,
        }, ],
        "CanPurchase": true,
        "PurchaseFrom": "GVDefault",
        "PurchasePrice": 440,
        "PurchaseRequirements": ["y 3", ],
    },
    "NameLocalization":
    {
         "es": "Calabacin a la parrilla",
         "ko": "구운 주키니",
         "de": "Gegrillte Zucchini",
         "fr": "Courgettes grillées",
         // "hu": "",
         // "it": "",
        "ja": "焼きズッキーニ",
         "pt": "Abobrinha grelhada",
         // "ru": "",
         // "tr": "",
          "zh": "烤西葫芦",
    },
    "DescriptionLocalization":
    {
        "es": "Un plato de calabacin a la parrilla",
        "ko": "구운 주키니 한 접시.",
        "de": "Ein Teller voll gegrillter Zucchini.",
        "fr": "Une assiette de courgettes grillées.",
         // "hu": "",
         // "it": "",
        "ja": "焼いたズッキーニのプレート。",
         "pt": "Um prato de abobrinha grelhada.",
         // "ru": "",
         // "tr": "",
          "zh": "一盘烤西葫芦",
    }
}
