{
    "Name": "Black Coffee",
    "Description": "It's extremely bitter.",
    "Category": "Cooking",
    "Edibility": 5,
    "EdibleIsDrink": true,
    "EdibleBuffs":
    {
        "Farming": 0,
        "Fishing": 0,
        "Mining": 0,
        "Luck": 0,
        "Foraging": 0,
        "MaxStamina": 0,
        "MagnetRadius": 0,
        "Speed": 1,
        "Defense": 0,
        "Attack": 0,
        "Duration": 60,
    },
    "Price": 50,
    "IsColored": false,
    "GiftTastes":
    {
        "Love": ["Harvey"],
        "Like": ["Alex", "Abigail", "Caroline", "Clint", "Demetrius", "Dwarf", "Elliott", "Emily", "Evelyn", "George", "Gus", "Jodi", "Kent", "Krobus", "Leah", "Lewis", "Linus", "Maru", "Pam", "Penny", "Pierre", "Robin", "Sam", "Sandy", "Sebastian", "Shane", "Willy", "Wizard"],
        "Hate": ["Jas", "Vincent"],
    },
    "Recipe": null,
    "CanPurchase": true,
    "PurchaseFrom": "GVDefault",
    "PurchasePrice": 100,
    "NameLocalization":
    {
        "es": "Café negro",
        "ko": "블랙 커피",
        "de": "Schwarzer Kaffee",
        "fr": "Café noir",
        "hu": "Fekete kávé",
        // "it": "",
        "ja": "ブラックコーヒー",
        "pt": "Café preto",
        // "ru": "",
        // "tr": "",
        "zh": "黑咖啡",
    },
    "DescriptionLocalization":
    {
        "es": "Es extremadamente amargo.",
        "ko": "엄청 써요.",
        "de": "Er ist verdammt bitter.",
        "fr": "C'est extrêmement amer.",
        "hu": "Hihetetlenül keserű.",
        // "it": "",
        "ja": "とてもにがい。",
        "pt": "É extremamente amargo.",
        // "ru": "",
        // "tr": "",
        "zh": "它超级苦。",
    }
}