{
    "Name": "Smores",
    "Description": "Because you always want additional ones.",
    "Category": "Cooking",
    "Edibility": 80,
    "EdibleIsDrink": false,
    "EdibleBuffs": null,
    "Price": 80,
    "IsColored": false,
    "GiftTastes":
    {
        "Love": ["Abigail"],
        "Like": ["Alex", "Caroline", "Clint", "Demetrius", "Dwarf", "Elliott", "Emily", "Evelyn", "George", "Gus", "Haley", "Harvey", "Jas", "Jodi", "Kent", "Leah", "Lewis", "Linus", "Marnie", "Maru", "Pam", "Penny", "Pierre", "Robin", "Sam", "Sandy", "Sebastian", "Shane", "Vincent", "Wizard"],
        "Dislike": ["Krobus", "Willy", ],
    },
    "Recipe":
    {
        "ResultCount": 1,
        "Ingredients": [
        {
            "Object": "Graham Crackers",
            "Count": 2,
        },
        {
            "Object": "Marshmallow Fluff",
            "Count": 1,
        },
        {
            "Object": "Chocolate",
            "Count": 1,
        }],
        "CanPurchase": true,
        "PurchaseFrom": "GVDefault",
        "PurchasePrice": 450,
        "PurchaseRequirements": ["HasCookingRecipe Graham-Crackers Chocolate", "y 4", ],
    },
    "NameLocalization":
    {
        "es": "Smores",
        "ko": "스모어",
        "de": "Smores",
        "fr": "Guim-o-choco",
         // "hu": "",
         // "it": "",
        "ja": "スモア",
        "pt": "S'mores",
         // "ru": "",
         // "tr": "",
        "zh": "曲奇饼",
    },
    "DescriptionLocalization":
    {
        "es": "Porque siempre quieres otros adicionales.",
        "ko": "더 먹고 싶어지게 만드는 맛.",
        "de": "Weil du immer mehr willst.",
        "fr": "Plat américain ou canadien appelé aussi S'more. C'est une guimauve grillée et un carré de chocolat entre deux biscuits Graham.",
         // "hu": "",
         // "it": "",
        "ja": "どんどんおかわりが欲しくなる。",
        "pt": "Porque você sempre quer mais.",
         // "ru": "",
         // "tr": "",
        "zh": "因为你总是想要吃这个经典的口味。",
    }
}