{
    "Name": "Lobster Stock",
    "Description": "Stewed down lobster broth that's often used as a base for soup.",
    "Category": "Cooking",
    "Edibility": 66,
    "EdibleIsDrink": false,
    "EdibleBuffs": null,
    "Price": 1760,
    "IsColored": false,
    "GiftTastes":
    {
        "Love": ["Harvey"],
        "Like": ["Alex", "Caroline", "Clint", "Demetrius", "Dwarf", "Elliott", "Evelyn", "George", "Gus", "Jodi", "Kent", "Krobus", "Lewis", "Linus", "Maru", "Pam", "Penny", "Pierre", "Robin", "Sandy", "Willy", "Wizard"],
        "Neutral": ["Emily", "Leah", "Marnie"],
        "Dislike": ["Abigail", "Haley", "Jas", "Sam", "Shane", "Vincent"],
        "Hate": ["Sebastian"],
    },
    "Recipe":
    {
        "ResultCount": 1,
        "Ingredients": [
        {
            "Object": 715,
            "Count": 4,
        },
        {
            "Object": 247,
            "Count": 1,
        },
        {
            "Object": 348,
            "Count": 1,
        },
        {
            "Object": 20,
            "Count": 2,
        },
        {
            "Object": 248,
            "Count": 6,
        }],
        "CanPurchase": true,
        "PurchaseFrom": "GVDefault",
        "PurchasePrice": 2460,
        "PurchaseRequirements": ["y 2", ],
    },
    "NameLocalization":
    {
        "es": "Caldo de langosta",
        "ko": "랍스터 육수",
        // "de": "",
        "fr": "Bouillon de homard",
        "hu": "Homár alaplé.",
        // "it": "",
        // "ja": "",
        // "pt": "",
        // "ru": "",
        // "tr": "",
        "zh": "龙虾高汤",
    },
    "DescriptionLocalization":
    {
        "es": "Caldo de langosta guisada que se usa a menudo como base para sopa.",
        "ko": "수프의 기초로 자주 사용되는 랍스터 육수.",
        // "de": "",
        "fr": "Mijoté de homard en bouillon souvent utilisé comme base d'une soupe.",
        "hu": "Párolt homár alaplévé készítve, melyet gyakran használják levesek alapjául.",
        // "it": "",
        // "ja": "",
        // "pt": "",
        // "ru": "",
        // "tr": "",
        "zh": "慢炖的龙虾高汤，通常用作汤底。",
    }
}