{
    "Name": "Tea",
    "Description": "It smells delicious. This would surely give you a boost.",
    "Category": "Cooking",
    "Edibility": 10,
    "EdibleIsDrink": true,
    "EdibleBuffs":
    {
        "Farming": 0,
        "Fishing": 0,
        "Mining": 0,
        "Luck": 0,
        "Foraging": 0,
        "MaxStamina": 0,
        "MagnetRadius": 0,
        "Speed": 1,
        "Defense": 0,
        "Attack": 0,
        "Duration": 120,
    },
    "Price": 150,
    "IsColored": false,
    "Recipe":
    {
        "ResultCount": 1,
        "Ingredients": [
        {
            "Object": "Camellia",
            "Count": 1,
        }, ],
        "IsDefault": false,
        "CanPurchase": false,
    },
    "NameLocalization":
    {
        "es": "Té",
        "ko": "차",
        "de": "Tee",
        // "fr": "",
        "hu": "Tea",
        // "it": "",
        "ja": "ツバキ茶",
        "pt": "Chá",
        "ru": "Чай",
        // "tr": "",
        "zh": "茶",
    },
    "DescriptionLocalization":
    {
        "es": "Huele delicioso. Esto seguramente le dará un impulso.",
        "ko": "기분좋은 향이 납니다. 에너지를 채워 줄 겁니다.",
        "de": "Es riecht lecker. Dies würde dir sicherlich einen Schub geben.",
        // "fr": "",
        "hu": "Isteni az illata. Ettől mindenképpen erőre kapsz!",
        // "it": "",
        "ja": "良い香りのお茶。あなたもきっと気に入るはず。",
        "pt": "Cheiro delicioso. Isso certamente lhe daria energia.",
        "ru": "Вкусно пахнет и наверняка приободрит Вас.",
        // "tr": "",
        "zh": "茶。闻起来很香。这肯定会使你健步如飞。",
    }
}