{
    "Name": "Matcha Cookies",
    "Description": "These green cookies are suprisingly delicious.",
    "Category": "Cooking",
    "Edibility": 6,
    "EdibleIsDrink": false,
    "EdibleBuffs": null,
    "Price": 100,
    "IsColored": false,
    "GiftTastes":
    {
        "Like": ["Abigail", "Alex", "Caroline", "Clint", "Demetrius", "Dwarf", "Elliott", "Emily", "Evelyn", "George", "Gus", "Haley", "Harvey", "Jas", "Jodi", "Kent", "Leah", "Lewis", "Linus", "Marnie", "Maru", "Pam", "Penny", "Pierre", "Robin", "Sam", "Sandy", "Sebastian", "Shane", "Vincent", "Wizard"],
        "Dislike": ["Krobus", "Willy"],
    },
    "Recipe":
    {
        "ResultCount": 1,
        "Ingredients": [
        {
            "Object": "Matcha Powder",
            "Count": 1,
        },
        {
            "Object": 246,
            "Count": 1,
        },
        {
            "Object": 245,
            "Count": 1,
        },
        {
            "Object": -5,
            "Count": 1,
        }],
        "CanPurchase": true,
        "PurchaseFrom": "GVDefault",
        "PurchasePrice": 525,
            },
    "NameLocalization":
    {
        "es": "Galletas de matcha",
        "ko": "말차 쿠키",
        "de": "Matchakekse",
        "fr": "Biscuits au thé vert matcha",
         // "hu": "",
         // "it": "",
        "ja": "抹茶クッキー",
        "pt": "Biscoitos de Matcha",
         // "ru": "",
         // "tr": "",
        "zh": "抹茶饼干",
    },
    "DescriptionLocalization":
    {
        "es": "¡Estas galletas verdes son sorprendentemente deliciosas!",
        "ko": "이 녹색 쿠키는 놀랄만큼 맛있어요.",
        "de": "Diese grünen Kekse sind überraschend lecker.",
        "fr": "Ces biscuits verts sont surprenamment délicieux.",
         // "hu": "",
         // "it": "",
        "ja": "この緑色のクッキーはびっくりするほどおいしい。",
        "pt": "Esses biscoitos verdes são surpreendentemente deliciosos.",
         // "ru": "",
         // "tr": "",
        "zh": "这些绿色的饼干竟然出奇的好吃。",
    }
}