{
    "Name": "Spring Salad",
    "Description": "A nice light meal.",
    "Category": "Cooking",
    "Edibility": 50,
    "EdibleIsDrink": false,
    "Price": 185,
    "IsColored": false,
    "Recipe":
    {
        "ResultCount": 1,
        "Ingredients": [
        {
            "Object": "Lettuce",
            "Count": 1,
        },
        {
            "Object": "Cucumber",
            "Count": 1,
        },
        {
            "Object": "Quinoa",
            "Count": 1,
        }, ],
        "CanPurchase": true,
        "PurchaseFrom": "GVDefault",
        "PurchasePrice": 500,
        "PurchaseRequirements": [
            "r 0.2"
        ]
    },
    "GiftTastes":
    {
        "Like": ["Abigail", "Alex", "Caroline", "Clint", "Demetrius", "Dwarf", "Elliott", "Emily", "Evelyn", "George", "Gus", "Harvey", "Jas", "Jodi", "Kent", "Krobus", "Leah", "Lewis", "Linus", "Marnie", "Maru", "Pam", "Penny", "Pierre", "Robin", "Sam", "Sandy", "Shane", "Vincent", "Wizard", "Krobus", "Leah", "Willy"],
    },

    "NameLocalization":
    {
        "es": "Ensalada de primavera",
        "ko": "봄 샐러드",
        "de": "Frühlingssalat",
        "fr": "Salade de printemps",
         // "hu": "",
         // "it": "",
        "ja": "スプリングサラダ",
         "pt": "Salada de Primavera",
         // "ru": "",
         // "tr": "",
          "zh": "春日沙拉",
    },
    "DescriptionLocalization":
    {
        "es": "Una buena comida ligera",
        "ko": "근사하고 가벼운 식사.",
        "de": "Eine leichte Mahlzeit.",
        "fr": "Un repas sympa et léger.",
         // "hu": "",
         // "it": "",
        "ja": "素敵な朝食。",
          "pt": "Uma boa refeição leve.",
         // "ru": "",
         // "tr": "",
          "zh": "一顿美味的便餐。",
    }
}
