[
  {
    "StorageName": "Large Chest",
    "Capacity": 72,
    "CanCarry": true,
    "IsPlaceable": true,
    "AllowList": [],
    "BlockList": [],
    "Tabs": []
  },
  {
    "StorageName": "Magic Chest",
    "Capacity": -1,
    "CanCarry": true,
    "IsPlaceable": true,
    "AllowList": [],
    "BlockList": [],
    "Tabs": [
      "Crops",
      "Seeds",
      "Materials",
      "Cooking",
      "Fishing",
      "Equipment",
      "Clothing",
      "Misc"
    ]
  },
  {
    "StorageName": "Super Magic Chest",
    "Capacity": -1,
    "CanCarry": true,
    "IsPlaceable": true,
    "AllowList": [],
    "BlockList": [],
    "Tabs": [
      "Crops",
      "Seeds",
      "Materials",
      "Cooking",
      "Fishing",
      "Equipment",
      "Clothing",
      "Misc"
    ]
  }
]