{
    "Name": "Salt Flavored Chips",
    "Description": "Classic potato chips.",
    "Category": "Cooking",
    "Edibility": 16,
    "EdibleIsDrink": false,
    "EdibleBuffs": null,
    "Price": 120,
    "IsColored": false,
    "GiftTastes":
    {
        "Like": ["Abigail", "Alex", "Caroline", "Clint", "Demetrius", "Dwarf", "Elliott", "Emily", "Evelyn", "George", "Gus", "Haley", "Harvey", "Jas", "Jodi", "Kent", "Leah", "Lewis", "Linus", "Marnie", "Maru", "Pam", "Penny", "Pierre", "Robin", "Sam", "Sebastian", "Shane", "Vincent", "Willy", "Wizard"],
        "Dislike": ["Krobus", "Sandy"],
    },
    "Recipe":
    {
        "ResultCount": 1,
        "Ingredients": [
        {
            "Object": 192,
            "Count": 1,
        },
        {
            "Object": "Salt",
            "Count": 1,
        }],
        "CanPurchase": true,
        "PurchaseFrom": "GVDefault",
        "PurchasePrice": 550,
            },
    "NameLocalization":
    {
        "es": "Papas tostadas",
        "ko": "감자 칩",
        "de": "Salzige Chips",
        "fr": "Frites salées",
         // "hu": "",
         // "it": "",
        "ja": "ポテトチップスうすしお味",
        "pt": "Batatinhas fritas com sabor de sal",
         // "ru": "",
         // "tr": "",
        "zh": "咸味薯片",
    },
    "DescriptionLocalization":
    {
        "es": "Papas fritas clásicas.",
        "ko": "평범한 감자 칩.",
        "de": "Klassische Kartoffelchips.",
        "fr": "Des frites de pommes de terre classiques.",
         // "hu": "",
         // "it": "",
        "ja": "おなじみのポテトチップス。",
        "pt": "Batatas fritas clássicas.",
         // "ru": "",
         // "tr": "",
        "zh": "超经典口味的薯片。",
    }
}