{
    "Name": "Dragon Fruit Popsicle",
    "Description": "The seeds might get stuck in your teeth.",
    "Category": "Cooking",
    "Edibility": 20,
    "EdibleIsDrink": false,
    "EdibleBuffs": null,
    "Price": 800,
    "IsColored": false,
    "GiftTastes":
    {
        "Love": ["Linus", "Pam", "Sam"],
        "Like": ["Abigail", "Alex", "Caroline", "Clint", "Demetrius", "Dwarf", "Elliott", "Emily", "Evelyn", "George", "Gus", "Haley", "Harvey", "Jas", "Jodi", "Kent", "Leah", "Lewis", "Marnie", "Maru", "Penny", "Pierre", "Robin", "Sandy", "Sebastian", "Shane", "Vincent", "Wizard"],
        "Neutral": ["Krobus", "Willy"],
    },
    "Recipe":
    {
        "ResultCount": 1,
        "Ingredients": [
        {
            "Object": "Dragon Fruit",
            "Count": 1,
        },
        {
            "Object": 388,
            "Count": 1,
        }],
        "CanPurchase": true,
        "PurchaseFrom": "Sandy",
        "PurchasePrice": 1300,
            },
    "NameLocalization":
    {
        "es": "Paleta de pitaya",
        "ko": "용과 팝시클",
        "de": "Drachenfruchteis am Stiel",
        "fr": "Glace à l'eau au fruit du dragon",
         // "hu": "",
         // "it": "",
        "ja": "ドラゴンフルーツアイスバー",
        "pt": "Picolé de fruta do dragão",
         // "ru": "",
         // "tr": "",
        "zh": "火龙果冰棒",
    },
    "DescriptionLocalization":
    {
        "es": "Las semillas pueden quedar atrapadas en tus dientes.",
        "ko": "씨앗이 이에 끼일수도 있어요.",
        "de": "Nimm dich vor den Samen in Acht, sie bleiben gerne in den Zähnen stecken.",
        "fr": "Des graines pourraient se coincer entre vos dents.",
         // "hu": "",
         // "it": "",
        "ja": "タネが歯に詰まる事がある。",
        "pt": "As sementes podem ficar presas nos dentes.",
         // "ru": "",
         // "tr": "",
        "zh": "果肉种子可能会塞在你的牙缝里。",
    }
}