{
    "Name": "Duck DNA",
    "Description": "Some duck DNA extracted from a feather.",
    "Category": "AnimalGoods",
    "Edibility": -300,
    "Price": 10,
    "IsColored": false,
    "GiftTastes":
    {
	"Love": ["Demetrius", "Maru"],
	"Like": ["Krobus", "Wizard", "Harvey"],
        "Neutral": ["Abigail", "Alex", "Caroline", "Clint", "Dwarf", "Elliott", "Emily", "Evelyn", "George", "Gus", "Haley", "Jas", "Jodi", "Kent", "Leah", "Lewis", "Linus", "Marnie", "Pam", "Penny", "Pierre", "Robin", "Sam", "Sandy", "Sebastian", "Shane", "Vincent", "Willy"],
    },
    "Recipe": null,
    "NameLocalization":
    {
        "es": "ADN de pato",
        "ko": "오리 DNA",
        // "de": "",
        "fr": "ADN de canard",
        "hu": "Kacsa DNS",
        // "it": "",
        // "ja": "",
        // "pt": "",
        // "ru": "",
        // "tr": "",
         "zh": "鸭子DNA",
    },
    "DescriptionLocalization":
    {
        "es": "Un poco de ADN de pato extraído de una pluma.",
        "ko": "깃털에서 추출한 오리 DNA.",
        // "de": "",
        "fr": "De l'ADN de canard extrait d'une plume.",
        "hu": "Egy kacsa DNS-e, melyet tollból nyertek ki.",
        // "it": "",
        // "ja": "",
        // "pt": "",
        // "ru": "",
        // "tr": "",
         "zh": "从鸭毛中提取的鸭子DNA。",
    },
    "ContextTags": [
        "dna_item",
    ],
}
