﻿{
  "loadLate": true,
  
  "addMaps": [ 
  
    //NEW LOCATIONS  
    {
      "name": "BlueMoonVineyard",
      "file": "assets/Maps/BlueMoonVineyard.tbin"
    },
    {
      "name": "TownEast",
      "file": "assets/Maps/TownEast.tbin"
    },
    {
      "name": "ShearwaterBridge",
      "file": "assets/Maps/ShearwaterBridge.tbin"
    },
    {
      "name": "ForestWest",
      "file": "assets/Maps/ForestWest.tbin"
    },
	{
      "name": "AuroraVineyard",
      "file": "assets/Maps/AuroraVineyard.tbin"
    },
	{
      "name": "SpriteSpring",
      "file": "assets/Maps/SpriteSpring.tbin"
    },
    {
      "name": "LostWoods",
      "file": "assets/Maps/LostWoods.tbin"
    },
    {
      "name": "MarnieShed",
      "file": "assets/Maps/MarnieShed.tbin"
    },
    {
      "name": "AndyHouse",
      "file": "assets/Maps/AndyHouse.tbin"
    },
	{
      "name": "AndyCellar",
      "file": "assets/Maps/AndyCellar.tbin"
    },
    {
      "name": "SusanHouse",
      "file": "assets/Maps/SusanHouse.tbin"
    },
    {
      "name": "JenkinsHouse",
      "file": "assets/Maps/JenkinsHouse.tbin"
    },
    {
      "name": "SophiaHouse",
      "file": "assets/Maps/SophiaHouse.tbin"
    },
    {
      "name": "SophiasCellar",
      "file": "assets/Maps/SophiasCellar.tbin"
    },
    {
      "name": "OliviaCellar",
      "file": "assets/Maps/OliviaCellar.tbin"
    },
	{
      "name": "CrimsonBadlands",
      "file": "assets/Maps/CrimsonBadlands.tbin"
    },
	{
      "name": "IridiumQuarry",
      "file": "assets/Maps/IridiumQuarry.tbin"
    },
    {
      "name": "TreasureCave",
      "file": "assets/Maps/TreasureCave.tbin"
    },
	{
      "name": "DesertRailway",
      "file": "assets/Maps/DesertRailway.tbin"
    },
	{
      "name": "WizardBasement",
      "file": "assets/Maps/WizardBasement.tbin"
    },
	{
      "name": "AuroraVineyardPictureMap",
      "file": "assets/Maps/AuroraVineyardPictureMap.tbin"
    },
	{
      "name": "StardustFarmPictureMap",
      "file": "assets/Maps/StardustFarmPictureMap.tbin"
    },
	{
      "name": "Void",
      "file": "assets/Maps/Void.tbin"
    },
    {
      "name": "Claire_WarpRoom",
      "file": "assets/Maps/Claire_WarpRoom.tbin"
    },
    {
      "name": "Martin_WarpRoom",
      "file": "assets/Maps/Martin_WarpRoom.tbin"
    },
    {
      "name": "Camilla_WarpRoom",
      "file": "assets/Maps/Camilla_WarpRoom.tbin"
    },
    {
      "name": "Alesia_WarpRoom",
      "file": "assets/Maps/Alesia_WarpRoom.tbin"
    },
    {
      "name": "Isaac_WarpRoom",
      "file": "assets/Maps/Isaac_WarpRoom.tbin"
    },
    {
      "name": "Apples_WarpRoom",
      "file": "assets/Maps/Apples_WarpRoom.tbin"
    },
    {
      "name": "Morgan_WarpRoom",
      "file": "assets/Maps/Morgan_WarpRoom.tbin"
    },
    {
      "name": "Scarlett_WarpRoom",
      "file": "assets/Maps/Scarlett_WarpRoom.tbin"
    },
    {
      "name": "Sandy_WarpRoom",
      "file": "assets/Maps/Sandy_WarpRoom.tbin"
    },
    {
      "name": "DayEnd_WarpRoom",
      "file": "assets/Maps/DayEnd_WarpRoom.tbin"
    },
	{
      "name": "ApplesRoom",
      "file": "assets/Maps/ApplesRoom.tbin"
    },
	{
      "name": "GunthersRoom",
      "file": "assets/Maps/GunthersRoom.tbin"
    },
	{
      "name": "GrandpasShed",
      "file": "assets/Maps/GrandpasShed.tbin",
	  "type": "Cellar"
    },
	{
      "name": "GrandpasShedGreenhouse",
      "file": "assets/Maps/GrandpasShedGreenhouse.tbin"
    },
	{
      "name": "GrandpasShedRuins",
      "file": "assets/Maps/GrandpasShedRuins.tbin"
    },
	{
      "name": "GrandpasShedOutside",
      "file": "assets/Maps/GrandpasShedOutside.tbin"
    },
	{
      "name": "Countryside_BusStop_Bus",
      "file": "assets/Maps/Countryside_BusStop_Bus.tbin"
    },
	{
      "name": "Countryside_BusStop_NoBus",
      "file": "assets/Maps/Countryside_BusStop_NoBus.tbin"
    },
	{
      "name": "Countryside_ClaireHouse",
      "file": "assets/Maps/Countryside_ClaireHouse.tbin"
    },
	{
      "name": "ClaireHouse",
      "file": "assets/Maps/ClaireHouse.tbin"
    },
	{
      "name": "JojaEmporium",
      "file": "assets/Maps/JojaEmporium.tbin"
    },
	{
      "name": "GuntherExpedition1",
      "file": "assets/Maps/GuntherExpedition1.tbin"
    },
	{
      "name": "GuntherExpedition2",
      "file": "assets/Maps/GuntherExpedition2.tbin"
    },
	{
      "name": "GrampletonFields_Small",
      "file": "assets/Maps/GrampletonFields_Small.tbin"
    },
	  ],

  "mergeMaps": [
  
	//MAP UNLOCKS
    {
      "name": "AndyHouse",
      "file": "assets/MapPatches/AndyHouseClean.tbin",
      "sourceArea": [ 0, 0, 24, 22 ],
      "position": [ 0, 0 ],
	  "conditions": "LC Game1.MasterPlayer.hasCompletedCommunityCenter()",
    },
	{
      "name": "Forest",
      "file": "assets/MapPatches/AndyFarmHealthy.tbin",
      "sourceArea": [ 0, 0, 15, 8 ],
      "position": [ 54, 62 ],
	  "conditions": "LC Game1.MasterPlayer.hasCompletedCommunityCenter()",
    },
    {
      "name": "AndyHouse",
      "file": "assets/MapPatches/AndyHouseClean.tbin",
      "sourceArea": [ 0, 0, 24, 22 ],
      "position": [ 0, 0 ],
	  "conditions": "LC Game1.MasterPlayer.eventsSeen.Contains(502261)",
    },
    {
      "name": "AndyHouse",
      "file": "assets/MapPatches/AndyHouse_CellarEntrance.tbin",
      "sourceArea": [ 0, 0, 7, 5 ],
      "position": [ 18, 18 ],
	  "conditions": "n AndyCellar",
    },
    {
      "name": "BlueMoonVineyard",
      "file": "assets/MapPatches/BlueMoonVineyard_FairyGarden.tbin",
      "sourceArea": [ 0, 0, 11, 18 ],
      "position": [ 11, 1 ],
	  "conditions": "n SophiaFairyGarden",
    },
    {
      "name": "Forest",
      "file": "assets/MapPatches/AndyFarmHealthy.tbin",
      "sourceArea": [ 0, 0, 15, 8 ],
      "position": [ 54, 62 ],
	  "conditions": "LC Game1.MasterPlayer.eventsSeen.Contains(502261)",
    },
	{
      "name": "ForestWest",
      "file": "assets/MapPatches/SpriteSpringUnlocked.tbin",
      "sourceArea": [ 0, 0, 44, 39 ],
      "position": [ 111, 117 ],
	  "conditions": "LC Game1.MasterPlayer.eventsSeen.Contains(418172)",
    },
	{
      "name": "SkullCave",
      "file": "assets/MapPatches/CrimsonBadlandsUnlocked.tbin",
      "sourceArea": [ 0, 0, 12, 9 ],
      "position": [ 15, 0 ],
	  "conditions": "LC Game1.MasterPlayer.eventsSeen.Contains(1305677)",
    },
	{
      "name": "SkullCave",
      "file": "assets/MapPatches/CrimsonBadlandsUnlocked.tbin",
      "sourceArea": [ 0, 0, 12, 9 ],
      "position": [ 15, 0 ],
	  "conditions": "e 1305677",
    },
	{
      "name": "TownEast",
      "file": "assets/MapPatches/TownEastUnlocked.tbin",
      "sourceArea": [ 0, 0, 3, 3 ],
      "position": [ 15, 13 ],
	  "conditions": "LC Game1.MasterPlayer.eventsSeen.Contains(1000024)",
    },
	{
      "name": "ForestWest",
      "file": "assets/MapPatches/BearUnlocked.tbin",
      "sourceArea": [ 0, 0, 1, 2 ],
      "position": [ 10, 3 ],
	  "conditions": "LC Game1.MasterPlayer.eventsSeen.Contains(2120303)",
    },
	{
      "name": "AuroraVineyard",
      "file": "assets/MapPatches/JunimoPlaque.tbin",
      "sourceArea": [ 0, 0, 1, 1 ],
      "position": [ 10, 6 ],
	  "conditions": "LC Game1.MasterPlayer.eventsSeen.Contains(77759254)",
    },
	{
      "name": "AuroraVineyard",
      "file": "assets/MapPatches/AuroraVineyardOvergrown.tbin",
      "sourceArea": [ 0, 0, 35, 42 ],
      "position": [ 0, 0 ],
	  "conditions": "LC Game1.MasterPlayer.eventsSeen.Contains(7775925)",
    },
	{
      "name": "AuroraVineyard",
      "file": "assets/MapPatches/AuroraVineyardStarfruits.tbin",
      "sourceArea": [ 0, 0, 35, 42 ],
      "position": [ 0, 0 ],
	  "conditions": "LC Game1.MasterPlayer.eventsSeen.Contains(7776001)",
    },	
	{
      "name": "ApplesRoom",
      "file": "assets/MapPatches/ApplesRoomStarfruitTree.tbin",
      "sourceArea": [ 0, 0, 19, 15 ],
      "position": [ 0, 0 ],
	  "conditions": "LC Game1.MasterPlayer.eventsSeen.Contains(7776006)",
    },
	{
      "name": "ApplesRoom",
      "file": "assets/MapPatches/ApplesRoomPatch.tbin",
      "sourceArea": [ 0, 0, 3, 3 ],
      "position": [ 1, 8 ],
	  "conditions": "LC Game1.MasterPlayer.eventsSeen.Contains(7766000)",
    },
	{
      "name": "Forest",
      "file": "assets/MapPatches/ShaneBottleCleanup.tbin",
      "sourceArea": [ 0, 0, 4, 2 ],
      "position": [ 77, 98 ],
	  "conditions": "LC Game1.MasterPlayer.eventsSeen.Contains(1637013)",
    },
	{
      "name": "WizardBasement",
      "file": "assets/MapPatches/ShrineOfIllusions.tbin",
      "sourceArea": [ 0, 0, 1, 1 ],
      "position": [ 23, 4 ],
	  "conditions": "LC Game1.MasterPlayer.eventsSeen.Contains(1724095)",
    },	
	{
      "name": "WizardBasement",
      "file": "assets/MapPatches/ShrineOfIllusions.tbin",
      "sourceArea": [ 0, 0, 1, 1 ],
      "position": [ 23, 4 ],
	  "conditions": "e 1724095",
    },
	{
      "name": "GrandpasShedRuins",
      "file": "assets/MapPatches/GrandpasShed_IronBar.tbin",
      "sourceArea": [ 0, 0, 2, 2 ],
      "position": [ 4, 9 ],
	  "conditions": "e 2554904/k 2554907",
    },
	{
      "name": "GrandpasShedRuins",
      "file": "assets/MapPatches/GrandpasShed_BatteryPack.tbin",
      "sourceArea": [ 0, 0, 2, 2 ],
      "position": [ 8, 5 ],
	  "conditions": "e 2554905/k 2554907",
    },
	{
      "name": "GrandpasShedRuins",
      "file": "assets/MapPatches/GrandpasShed_HardwoodQuestComplete.tbin",
      "sourceArea": [ 0, 0, 2, 2 ],
      "position": [ 15, 10 ],
	  "conditions": "e 2554904/k 2554907",
    },
	{
      "name": "GrandpasShedRuins",
      "file": "assets/MapPatches/GrandpasShed_IronQuestComplete.tbin",
      "sourceArea": [ 0, 0, 2, 2 ],
      "position": [ 4, 9 ],
	  "conditions": "e 2554905/k 2554907",
    },
	{
      "name": "GrandpasShedRuins",
      "file": "assets/MapPatches/GrandpasShed_BatteryQuestComplete.tbin",
      "sourceArea": [ 0, 0, 2, 2 ],
      "position": [ 8, 5 ],
	  "conditions": "e 2554906/k 2554907",
    },
	

	//ADVENTURE GUILD GUESTS - old code
	/*{
      "name": "AdventureGuild",
      "file": "assets/Adventurers/AdventureGuildGuest1.tbin",
      "sourceArea": [ 0, 0, 1, 2 ],
      "position": [ 11, 13 ],
	  "conditions": "u 1",
    },
	{
      "name": "AdventureGuild",
      "file": "assets/Adventurers/AdventureGuildGuest1Gone.tbin",
      "sourceArea": [ 0, 0, 1, 2 ],
      "position": [ 11, 13 ],
	  "conditions": "u 2",
    },
	{
      "name": "AdventureGuild",
      "file": "assets/Adventurers/AdventureGuildGuest2.tbin",
      "sourceArea": [ 0, 0, 1, 2 ],
      "position": [ 9, 11 ],
	  "conditions": "u 3",
    },
	{
      "name": "AdventureGuild",
      "file": "assets/Adventurers/AdventureGuildGuest2Gone.tbin",
      "sourceArea": [ 0, 0, 1, 2 ],
      "position": [ 9, 11 ],
	  "conditions": "u 4",
    },
	{
      "name": "AdventureGuild",
      "file": "assets/Adventurers/AdventureGuildGuest3.tbin",
      "sourceArea": [ 0, 0, 1, 2 ],
      "position": [ 11, 13 ],
	  "conditions": "u 18 25",
    },
	{
      "name": "AdventureGuild",
      "file": "assets/Adventurers/AdventureGuildGuest3Gone.tbin",
      "sourceArea": [ 0, 0, 1, 2 ],
      "position": [ 11, 13 ],
	  "conditions": "u 19 26",
    },
	{
      "name": "AdventureGuild",
      "file": "assets/Adventurers/AdventureGuildGuest4.tbin",
      "sourceArea": [ 0, 0, 1, 2 ],
      "position": [ 2, 12 ],
	  "conditions": "u 14 22",
    },
	{
      "name": "AdventureGuild",
      "file": "assets/Adventurers/AdventureGuildGuest4Gone.tbin",
      "sourceArea": [ 0, 0, 1, 2 ],
      "position": [ 2, 12 ],
	  "conditions": "u 15 23",
    },
	{
      "name": "AdventureGuild",
      "file": "assets/Adventurers/AdventureGuildGuest5.tbin",
      "sourceArea": [ 0, 0, 1, 2 ],
      "position": [ 2, 12 ],
	  "conditions": "u 8",
    },
	{
      "name": "AdventureGuild",
      "file": "assets/Adventurers/AdventureGuildGuest5Gone.tbin",
      "sourceArea": [ 0, 0, 1, 2 ],
      "position": [ 2, 12 ],
	  "conditions": "u 9",
    },
	{
      "name": "AdventureGuild",
      "file": "assets/Adventurers/AdventureGuildGuest6.tbin",
      "sourceArea": [ 0, 0, 1, 2 ],
      "position": [ 3, 12 ],
	  "conditions": "u 6 20",
    },
	{
      "name": "AdventureGuild",
      "file": "assets/Adventurers/AdventureGuildGuest6Gone.tbin",
      "sourceArea": [ 0, 0, 1, 2 ],
      "position": [ 3, 12 ],
	  "conditions": "u 7 21",
    },
	{
      "name": "AdventureGuild",
      "file": "assets/Adventurers/AdventureGuildGuest7.tbin",
      "sourceArea": [ 0, 0, 1, 2 ],
      "position": [ 9, 11 ],
	  "conditions": "u 10 24",
    },
	{
      "name": "AdventureGuild",
      "file": "assets/Adventurers/AdventureGuildGuest7Gone.tbin",
      "sourceArea": [ 0, 0, 1, 2 ],
      "position": [ 9, 11 ],
	  "conditions": "u 11 25 26",
    },
	{
      "name": "AdventureGuild",
      "file": "assets/Adventurers/AdventureGuildGuest8.tbin",
      "sourceArea": [ 0, 0, 1, 2 ],
      "position": [ 3, 12 ],
	  "conditions": "u 7 19",
    },
	{
      "name": "AdventureGuild",
      "file": "assets/Adventurers/AdventureGuildGuest8Gone.tbin",
      "sourceArea": [ 0, 0, 1, 2 ],
      "position": [ 3, 12 ],
	  "conditions": "u 8 20",
    },
	{
      "name": "AdventureGuild",
      "file": "assets/Adventurers/AdventureGuildGuest9.tbin",
      "sourceArea": [ 0, 0, 1, 2 ],
      "position": [ 7, 11 ],
	  "conditions": "u 12",
    },
	{
      "name": "AdventureGuild",
      "file": "assets/Adventurers/AdventureGuildGuest9Gone.tbin",
      "sourceArea": [ 0, 0, 1, 2 ],
      "position": [ 7, 11 ],
	  "conditions": "u 13 14",
    },
	{
      "name": "AdventureGuild",
      "file": "assets/Adventurers/AdventureGuildGuest10.tbin",
      "sourceArea": [ 0, 0, 1, 2 ],
      "position": [ 2, 12 ],
	  "conditions": "u 15",
    },
	{
      "name": "AdventureGuild",
      "file": "assets/Adventurers/AdventureGuildGuest10Gone.tbin",
      "sourceArea": [ 0, 0, 1, 2 ],
      "position": [ 2, 12 ],
	  "conditions": "u 16 17",
    },
	{
      "name": "AdventureGuild",
      "file": "assets/Adventurers/AdventureGuildGuest11.tbin",
      "sourceArea": [ 0, 0, 1, 2 ],
      "position": [ 2, 12 ],
	  "conditions": "u 28",
    },
	{
      "name": "AdventureGuild",
      "file": "assets/Adventurers/AdventureGuildGuest11Gone.tbin",
      "sourceArea": [ 0, 0, 1, 2 ],
      "position": [ 2, 12 ],
	  "conditions": "u 1 2",
    },
	{
      "name": "AdventureGuild",
      "file": "assets/Adventurers/AdventureGuildGuestIsaac1.tbin",
      "sourceArea": [ 0, 0, 1, 2 ],
      "position": [ 10, 13 ],
	  "conditions": "u 26 27/e 7502583"
    },
	{
      "name": "AdventureGuild",
      "file": "assets/Adventurers/AdventureGuildGuestIsaac1Gone.tbin",
      "sourceArea": [ 0, 0, 1, 2 ],
      "position": [ 10, 13 ],
	  "conditions": "u 28/e 7502583"
    },
	{
      "name": "AdventureGuild",
      "file": "assets/Adventurers/AdventureGuildGuestIsaac2.tbin",
      "sourceArea": [ 0, 0, 1, 2 ],
      "position": [ 11, 15 ],
	  "conditions": "u 4 5 11/e 7502583",
    },
	{
      "name": "AdventureGuild",
      "file": "assets/Adventurers/AdventureGuildGuestIsaac2Gone.tbin",
      "sourceArea": [ 0, 0, 1, 2 ],
      "position": [ 11, 15 ],
	  "conditions": "u 6 12/e 7502583",
    },
	{
      "name": "AdventureGuild",
      "file": "assets/Adventurers/AdventureGuildGuestAlesia1.tbin",
      "sourceArea": [ 0, 0, 1, 2 ],
      "position": [ 2, 12 ],
	  "conditions": "u 1 16 17 23/e 7502583",
    },
	{
      "name": "AdventureGuild",
      "file": "assets/Adventurers/AdventureGuildGuestAlesia1Gone.tbin",
      "sourceArea": [ 0, 0, 1, 2 ],
      "position": [ 2, 12 ],
	  "conditions": "u 2 18 24/e 7502583",
    },
	{
      "name": "AdventureGuild",
      "file": "assets/Adventurers/AdventureGuildGuestAlesia2.tbin",
      "sourceArea": [ 0, 0, 1, 2 ],
      "position": [ 7, 11 ],
	  "conditions": "u 2 27 28/e 7502583",
    },
	{
	
      "name": "AdventureGuild",
      "file": "assets/Adventurers/AdventureGuildGuestAlesia2Gone.tbin",
      "sourceArea": [ 0, 0, 1, 2 ],
      "position": [ 7, 11 ],
	  "conditions": "u 1 3/e 7502583",
    },*/
	
	//MISCELLANEOUS
	/*{
      "name": "BusStop",
	  "file": "assets/MapPatches/BusStop_EndDayWarp.tbin",
      "sourceArea": [ 0, 0, 1, 1 ],
      "position": [ 0, 18 ],
	  "addWarps": [ "12 7 DayEnd_WarpRoom 3 3" ]
    },*/
	{
      "name": "Backwoods",
      "file": "assets/MapPatches/Backwoods_GraveSite.tbin",
      "sourceArea": [ 0, 0, 3, 5 ],
      "position": [ 34, 4 ],
	  "conditions": "e 6963327"
    },
	{
      "name": "Town-Fair",
      "file": "assets/MapPatches/TownFairClean.tbin",
      "sourceArea": [ 0, 0, 6, 6 ],
      "position": [ 41, 76 ],
	  "conditions": "e 1000009",
    },
],


    //SHOPS

  "shops": [
    {
      "id": "AlesiaVendor",
        "inventory": [
          {
              "name":"Tempered Galaxy Dagger",
              "type":"MeleeWeapon",
              "price":350000
          },
          {
              "index":"386",
              "type":"Object",
              "price":1800
          },
          {
              "index":"441",
              "type":"Object",
              "price":180
          },
          {
              "name":"Haste Elixir",
              "type":"Object",
              "price":7000
          },
		  {
		  
              "name":"Armor Elixir",
              "type":"Object",
              "price":8000
          },
        ],
        "portraits":[
          "assets/ShopPortraits/Adventurers/AlesiaVendor.png",
        ],
    },
    {
      "id": "IsaacVendor",
        "inventory": [
          {
              "name":"Tempered Galaxy Sword",
              "type":"MeleeWeapon",
              "price":600000
          },
          {
              "name":"Tempered Galaxy Hammer",
              "type":"MeleeWeapon",
              "price":400000
          },
          {
              "index":"165",
              "type":"Object",
              "price":4000
          },
          {
              "name":"Hero Elixir",
              "type":"Object",
              "price":10000
          }
        ],
        "portraits":[
          "assets/ShopPortraits/Adventurers/IsaacVendor.png",
        ],
    },
    {
        "id": "ClaireShop",
        "inventory": [
		  {
              "index":272,
              "type":"BigObject",
              "Price":50000,
			  "conditions": "e 502261",
          },
		  {
              "index":167,
              "type":"Object",
              "Price":30,
          },
		  {
              "index":21,
              "type":"Wallpaper",
              "Price":50
          },
		  {
              "index":1609,
              "type":"Furniture",
              "Price":600
          },
          {
              "index":246,
              "type":"Object",
              "Price":90
          },
          {
              "index":247,
              "type":"Object",
              "Price":180
          },
          {
              "index":423,
              "type":"Object",
              "Price":180
          },
          {
              "index":419,
              "type":"Object",
              "Price":180
          },
		  {
              "index":245,
              "type":"Object",
              "Price":110
          },
		  {
              "index":297,
              "type":"Object",
              "Price":100
          },
		  
		  
		  //SPRING SEEDS
		  
          {   //Parsnip
              "index":472,
              "type":"Object",
              "Price":18,
			  "conditions": "z summer/z fall/z winter/k 502261"
          },
          {   //Potato
              "index":475,
              "type":"Object",
              "Price":45,
			  "conditions": "z summer/z fall/z winter/k 502261"
          },
          {   //Cauliflower
              "index":474,
              "type":"Object",
              "Price":70,
			  "conditions": "z summer/z fall/z winter/k 502261"
          },
          {   //Tulip
              "index":427,
              "type":"Object",
              "Price":18,
			  "conditions": "z summer/z fall/z winter/k 502261"
          },
          {   //Kale
              "index":477,
              "type":"Object",
              "Price":64,
			  "conditions": "z summer/z fall/z winter/k 502261"
          },
          {   //Jazz
              "index":429,
              "type":"Object",
              "Price":27,
			  "conditions": "z summer/z fall/z winter/k 502261"
          },
          {   //Beans
              "index":473,
              "type":"Object",
              "Price":50,
			  "conditions": "z summer/z fall/z winter/k 502261"
          },
		  
		  //SUMMER SEEDS 
		  
		  {   //Melons
              "index":479,
              "type":"Object",
              "Price":70,
			  "conditions": "z spring/z fall/z winter/k 502261"
          },
          {   //Tomato
              "index":480,
              "type":"Object",
              "Price":43,
			  "conditions": "z spring/z fall/z winter/k 502261"
          },
          {   //Blueberry
              "index":481,
              "type":"Object",
              "Price":72,
			  "conditions": "z spring/z fall/z winter/k 502261"
          },
          {   //Pepper
              "index":482,
              "type":"Object",
              "Price":35,
			  "conditions": "z spring/z fall/z winter/k 502261"
          },
          {   //Wheat
              "index":483,
              "type":"Object",
              "Price":8,
			  "conditions": "z spring/z fall/z winter/k 502261"
          },
          {   //Radish
              "index":484,
              "type":"Object",
              "Price":35,
			  "conditions": "z spring/z fall/z winter/k 502261"
          },
          {   //Corn
              "index":487,
              "type":"Object",
              "Price":135,
			  "conditions": "z spring/z fall/z winter/k 502261"
          },
          {   //Hops
              "index":302,
              "type":"Object",
              "Price":53,
			  "conditions": "z spring/z fall/z winter/k 502261"
          },
          {   //Poppy
              "index":453,
              "type":"Object",
              "Price":90,
			  "conditions": "z spring/z fall/z winter/k 502261"
          },
          {   //Spangle
              "index":455,
              "type":"Object",
              "Price":44,
			  "conditions": "z spring/z fall/z winter/k 502261"
          },
          {   //Sunflower
              "index":431,
              "type":"Object",
              "Price":180,
			  "conditions": "z spring/z fall/z winter/k 502261"
          },
 
		  //FALL SEEDS
		  
		  {   //Pumpkin
              "index":490,
              "type":"Object",
              "Price":88,
			  "conditions": "z spring/z summer/z winter/k 502261"
          },
		  {   //Sunflower
              "index":431,
              "type":"Object",
              "Price":180,
			  "conditions": "z spring/z summer/z winter/k 502261"
          },
		  {   //Corn
              "index":487,
              "type":"Object",
              "Price":135,
			  "conditions": "z spring/z summer/z winter/k 502261"
          },
          {   //Eggplant
              "index":488,
              "type":"Object",
              "Price":17,
			  "conditions": "z spring/z summer/z winter/k 502261"
          },
          {   //Bok Choy
              "index":491,
              "type":"Object",
              "Price":43,
			  "conditions": "z spring/z summer/z winter/k 502261"
          },
          {   //Amaranth
              "index":299,
              "type":"Object",
              "Price":64,
			  "conditions": "z spring/z summer/z winter/k 502261"
          },
          {   //Yam
              "index":492,
              "type":"Object",
              "Price":55,
			  "conditions": "z spring/z summer/z winter/k 502261"
          },
          {   //Cranberry
              "index":493,
              "type":"Object",
              "Price":220,
			  "conditions": "z spring/z summer/z winter/k 502261"
          },
          {   //Fairy
              "index":425,
              "type":"Object",
              "Price":180,
			  "conditions": "z spring/z summer/z winter/k 502261"
          },
		  {   //Grapes
              "index":301,
              "type":"Object",
              "Price":55,
			  "conditions": "z spring/z summer/z winter/k 502261"
          },
          {   //Wheat
              "index":483,
              "type":"Object",
              "Price":8,
			  "conditions": "z spring/z summer/z winter/k 502261"
          },
		  
		  
		  //Year-round Seeds - Player completed joja warehouse
		  
		  //SPRING SEEDS
		  
          {   //Parsnip
              "index":472,
              "type":"Object",
              "Price":18,
			  "conditions": "e 502261"
          },
          {   //Potato
              "index":475,
              "type":"Object",
              "Price":45,
			  "conditions": "e 502261"
          },
          {   //Cauliflower
              "index":474,
              "type":"Object",
              "Price":70,
			  "conditions": "e 502261"
          },
          {   //Tulip
              "index":427,
              "type":"Object",
              "Price":18,
			  "conditions": "e 502261"
          },
          {   //Kale
              "index":477,
              "type":"Object",
              "Price":64,
			  "conditions": "e 502261"
          },
          {   //Jazz
              "index":429,
              "type":"Object",
              "Price":27,
			  "conditions": "e 502261"
          },
          {   //Beans
              "index":473,
              "type":"Object",
              "Price":50,
			  "conditions": "e 502261"
          },
		  
		  //SUMMER SEEDS 
		  
		  {   //Melons
              "index":479,
              "type":"Object",
              "Price":70,
			  "conditions": "e 502261"
          },
          {   //Tomato
              "index":480,
              "type":"Object",
              "Price":43,
			  "conditions": "e 502261"
          },
          {   //Blueberry
              "index":481,
              "type":"Object",
              "Price":72,
			  "conditions": "e 502261"
          },
          {   //Pepper
              "index":482,
              "type":"Object",
              "Price":35,
			  "conditions": "e 502261"
          },
          {   //Wheat
              "index":483,
              "type":"Object",
              "Price":8,
			  "conditions": "e 502261"
          },
          {   //Radish
              "index":484,
              "type":"Object",
              "Price":35,
			  "conditions": "e 502261"
          },
          {   //Corn
              "index":487,
              "type":"Object",
              "Price":135,
			  "conditions": "e 502261"
          },
          {   //Hops
              "index":302,
              "type":"Object",
              "Price":53,
			  "conditions": "e 502261"
          },
          {   //Poppy
              "index":453,
              "type":"Object",
              "Price":90,
			  "conditions": "e 502261"
          },
          {   //Spangle
              "index":455,
              "type":"Object",
              "Price":44,
			  "conditions": "e 502261"
          },
          {   //Sunflower
              "index":431,
              "type":"Object",
              "Price":180,
			  "conditions": "e 502261"
          },
 
		  //FALL SEEDS
		  
		  {   //Pumpkin
              "index":490,
              "type":"Object",
              "Price":88,
			  "conditions": "e 502261"
          },
		  {   //Sunflower
              "index":431,
              "type":"Object",
              "Price":180,
			  "conditions": "e 502261"
          },
		  {   //Corn
              "index":487,
              "type":"Object",
              "Price":135,
			  "conditions": "e 502261"
          },
          {   //Eggplant
              "index":488,
              "type":"Object",
              "Price":17,
			  "conditions": "e 502261"
          },
          {   //Bok Choy
              "index":491,
              "type":"Object",
              "Price":43,
			  "conditions": "e 502261"
          },
          {   //Amaranth
              "index":299,
              "type":"Object",
              "Price":64,
			  "conditions": "e 502261"
          },
          {   //Yam
              "index":492,
              "type":"Object",
              "Price":55,
			  "conditions": "e 502261"
          },
          {   //Cranberry
              "index":493,
              "type":"Object",
              "Price":220,
			  "conditions": "e 502261"
          },
          {   //Fairy
              "index":425,
              "type":"Object",
              "Price":180,
			  "conditions": "e 502261"
          },
		  {   //Grapes
              "index":301,
              "type":"Object",
              "Price":55,
			  "conditions": "e 502261"
          },
          {   //Wheat
              "index":483,
              "type":"Object",
              "Price":8,
			  "conditions": "e 502261"
          },
        ],
        "portraits":[
          "assets/ShopPortraits/Joja/ClaireShop.png",
        ],
    },

    {
        "id": "MartinShop",
        "inventory": [
		  {
              "index":272,
              "type":"BigObject",
              "Price":50000,
			  "conditions": "e 502261",
          },
		  {
              "index":167,
              "type":"Object",
              "Price":30,
          },
		  {
              "index":21,
              "type":"Wallpaper",
              "Price":50
          },
		  {
              "index":1609,
              "type":"Furniture",
              "Price":600
          },
          {
              "index":246,
              "type":"Object",
              "Price":90
          },
          {
              "index":247,
              "type":"Object",
              "Price":180
          },
          {
              "index":423,
              "type":"Object",
              "Price":180
          },
          {
              "index":419,
              "type":"Object",
              "Price":180
          },
		  {
              "index":245,
              "type":"Object",
              "Price":110
          },
		  {
              "index":297,
              "type":"Object",
              "Price":100
          },
		  
		  
		  //SPRING SEEDS
		  
          {   //Parsnip
              "index":472,
              "type":"Object",
              "Price":18,
			  "conditions": "z summer/z fall/z winter/k 502261"
          },
          {   //Potato
              "index":475,
              "type":"Object",
              "Price":45,
			  "conditions": "z summer/z fall/z winter/k 502261"
          },
          {   //Cauliflower
              "index":474,
              "type":"Object",
              "Price":70,
			  "conditions": "z summer/z fall/z winter/k 502261"
          },
          {   //Tulip
              "index":427,
              "type":"Object",
              "Price":18,
			  "conditions": "z summer/z fall/z winter/k 502261"
          },
          {   //Kale
              "index":477,
              "type":"Object",
              "Price":64,
			  "conditions": "z summer/z fall/z winter/k 502261"
          },
          {   //Jazz
              "index":429,
              "type":"Object",
              "Price":27,
			  "conditions": "z summer/z fall/z winter/k 502261"
          },
          {   //Beans
              "index":473,
              "type":"Object",
              "Price":50,
			  "conditions": "z summer/z fall/z winter/k 502261"
          },
		  
		  //SUMMER SEEDS 
		  
		  {   //Melons
              "index":479,
              "type":"Object",
              "Price":70,
			  "conditions": "z spring/z fall/z winter/k 502261"
          },
          {   //Tomato
              "index":480,
              "type":"Object",
              "Price":43,
			  "conditions": "z spring/z fall/z winter/k 502261"
          },
          {   //Blueberry
              "index":481,
              "type":"Object",
              "Price":72,
			  "conditions": "z spring/z fall/z winter/k 502261"
          },
          {   //Pepper
              "index":482,
              "type":"Object",
              "Price":35,
			  "conditions": "z spring/z fall/z winter/k 502261"
          },
          {   //Wheat
              "index":483,
              "type":"Object",
              "Price":8,
			  "conditions": "z spring/z fall/z winter/k 502261"
          },
          {   //Radish
              "index":484,
              "type":"Object",
              "Price":35,
			  "conditions": "z spring/z fall/z winter/k 502261"
          },
          {   //Corn
              "index":487,
              "type":"Object",
              "Price":135,
			  "conditions": "z spring/z fall/z winter/k 502261"
          },
          {   //Hops
              "index":302,
              "type":"Object",
              "Price":53,
			  "conditions": "z spring/z fall/z winter/k 502261"
          },
          {   //Poppy
              "index":453,
              "type":"Object",
              "Price":90,
			  "conditions": "z spring/z fall/z winter/k 502261"
          },
          {   //Spangle
              "index":455,
              "type":"Object",
              "Price":44,
			  "conditions": "z spring/z fall/z winter/k 502261"
          },
          {   //Sunflower
              "index":431,
              "type":"Object",
              "Price":180,
			  "conditions": "z spring/z fall/z winter/k 502261"
          },
 
		  //FALL SEEDS
		  
		  {   //Pumpkin
              "index":490,
              "type":"Object",
              "Price":88,
			  "conditions": "z spring/z summer/z winter/k 502261"
          },
		  {   //Sunflower
              "index":431,
              "type":"Object",
              "Price":180,
			  "conditions": "z spring/z summer/z winter/k 502261"
          },
		  {   //Corn
              "index":487,
              "type":"Object",
              "Price":135,
			  "conditions": "z spring/z summer/z winter/k 502261"
          },
          {   //Eggplant
              "index":488,
              "type":"Object",
              "Price":17,
			  "conditions": "z spring/z summer/z winter/k 502261"
          },
          {   //Bok Choy
              "index":491,
              "type":"Object",
              "Price":43,
			  "conditions": "z spring/z summer/z winter/k 502261"
          },
          {   //Amaranth
              "index":299,
              "type":"Object",
              "Price":64,
			  "conditions": "z spring/z summer/z winter/k 502261"
          },
          {   //Yam
              "index":492,
              "type":"Object",
              "Price":55,
			  "conditions": "z spring/z summer/z winter/k 502261"
          },
          {   //Cranberry
              "index":493,
              "type":"Object",
              "Price":220,
			  "conditions": "z spring/z summer/z winter/k 502261"
          },
          {   //Fairy
              "index":425,
              "type":"Object",
              "Price":180,
			  "conditions": "z spring/z summer/z winter/k 502261"
          },
		  {   //Grapes
              "index":301,
              "type":"Object",
              "Price":55,
			  "conditions": "z spring/z summer/z winter/k 502261"
          },
          {   //Wheat
              "index":483,
              "type":"Object",
              "Price":8,
			  "conditions": "z spring/z summer/z winter/k 502261"
          },
		  
		  
		  //Year-round Seeds - Player completed joja warehouse
		  
		  //SPRING SEEDS
		  
          {   //Parsnip
              "index":472,
              "type":"Object",
              "Price":18,
			  "conditions": "e 502261"
          },
          {   //Potato
              "index":475,
              "type":"Object",
              "Price":45,
			  "conditions": "e 502261"
          },
          {   //Cauliflower
              "index":474,
              "type":"Object",
              "Price":70,
			  "conditions": "e 502261"
          },
          {   //Tulip
              "index":427,
              "type":"Object",
              "Price":18,
			  "conditions": "e 502261"
          },
          {   //Kale
              "index":477,
              "type":"Object",
              "Price":64,
			  "conditions": "e 502261"
          },
          {   //Jazz
              "index":429,
              "type":"Object",
              "Price":27,
			  "conditions": "e 502261"
          },
          {   //Beans
              "index":473,
              "type":"Object",
              "Price":50,
			  "conditions": "e 502261"
          },
		  
		  //SUMMER SEEDS 
		  
		  {   //Melons
              "index":479,
              "type":"Object",
              "Price":70,
			  "conditions": "e 502261"
          },
          {   //Tomato
              "index":480,
              "type":"Object",
              "Price":43,
			  "conditions": "e 502261"
          },
          {   //Blueberry
              "index":481,
              "type":"Object",
              "Price":72,
			  "conditions": "e 502261"
          },
          {   //Pepper
              "index":482,
              "type":"Object",
              "Price":35,
			  "conditions": "e 502261"
          },
          {   //Wheat
              "index":483,
              "type":"Object",
              "Price":8,
			  "conditions": "e 502261"
          },
          {   //Radish
              "index":484,
              "type":"Object",
              "Price":35,
			  "conditions": "e 502261"
          },
          {   //Corn
              "index":487,
              "type":"Object",
              "Price":135,
			  "conditions": "e 502261"
          },
          {   //Hops
              "index":302,
              "type":"Object",
              "Price":53,
			  "conditions": "e 502261"
          },
          {   //Poppy
              "index":453,
              "type":"Object",
              "Price":90,
			  "conditions": "e 502261"
          },
          {   //Spangle
              "index":455,
              "type":"Object",
              "Price":44,
			  "conditions": "e 502261"
          },
          {   //Sunflower
              "index":431,
              "type":"Object",
              "Price":180,
			  "conditions": "e 502261"
          },
 
		  //FALL SEEDS
		  
		  {   //Pumpkin
              "index":490,
              "type":"Object",
              "Price":88,
			  "conditions": "e 502261"
          },
		  {   //Sunflower
              "index":431,
              "type":"Object",
              "Price":180,
			  "conditions": "e 502261"
          },
		  {   //Corn
              "index":487,
              "type":"Object",
              "Price":135,
			  "conditions": "e 502261"
          },
          {   //Eggplant
              "index":488,
              "type":"Object",
              "Price":17,
			  "conditions": "e 502261"
          },
          {   //Bok Choy
              "index":491,
              "type":"Object",
              "Price":43,
			  "conditions": "e 502261"
          },
          {   //Amaranth
              "index":299,
              "type":"Object",
              "Price":64,
			  "conditions": "e 502261"
          },
          {   //Yam
              "index":492,
              "type":"Object",
              "Price":55,
			  "conditions": "e 502261"
          },
          {   //Cranberry
              "index":493,
              "type":"Object",
              "Price":220,
			  "conditions": "e 502261"
          },
          {   //Fairy
              "index":425,
              "type":"Object",
              "Price":180,
			  "conditions": "e 502261"
          },
		  {   //Grapes
              "index":301,
              "type":"Object",
              "Price":55,
			  "conditions": "e 502261"
          },
          {   //Wheat
              "index":483,
              "type":"Object",
              "Price":8,
			  "conditions": "e 502261"
          },
        ],
        "portraits":[
          "assets/ShopPortraits/Joja/MartinShop.png",
        ],
    },

	{
      "id": "SophiaLedger",
        "inventory": [
		  {
              "name":"Blue Moon Wine",
              "type":"Object",
              "price":3000
          },
		  {
              "name":"Aged Blue Moon Wine",
              "type":"Object",
              "price":28000
          },
          {
              "index":599,
              "type":"Object",
              "Price":600
          },
          {
              "index":621,
              "type":"Object",
              "Price":4000
          },
		  {
              "index":645,
              "type":"Object",
              "Price":15000,
			  "conditions": "n SophiaFairyGarden",
          },
		  {
              "index":915,
              "type":"Object",
              "Price":45000,
			  "conditions": "n SophiaFairyGarden",
          },
        ],
        "portraits":[
          "assets/ShopPortraits/Misc/SophiaLedger.png",
        ],
    },
	
	{
      "id": "AdventurerLedger",
        "inventory": [
		  {
              "name":"Iridium Skull Lamp-post",
              "type":"BigObject",
              "price":40000
          },
		  {
              "name":"Golden Skull Lamp-post",
              "type":"BigObject",
              "price":20000
          },
		  {
              "name":"Fancy Iron Lamp-post",
              "type":"BigObject",
              "price":10000
          },
		  {
              "name":"Fancy Wood Lamp-post",
              "type":"BigObject",
              "price":8000
          },
		  {
              "name":"Adventurer Gear",
              "type":"BigObject",
              "price":5000
          },
		  {
              "name":"Wood Barrel",
              "type":"BigObject",
              "price":2000
          },
		  {
              "name":"Large Wood Barrel L",
              "type":"BigObject",
              "price":2000
          },
		  {
              "name":"Large Wood Barrel R",
              "type":"BigObject",
              "price":2000
          },
		  {
              "name":"Little Machine",
              "type":"BigObject",
              "price":3000
          },
		  {
              "name":"Coal Box",
              "type":"BigObject",
              "price":4000
          },
		  {
              "name":"Wood Crate",
              "type":"BigObject",
              "price":1500
          },
		  {
              "name":"Moving Box",
              "type":"BigObject",
              "price":400
          },
		  {
              "name":"Log Pile",
              "type":"BigObject",
              "price":500
          },
		  {
              "name":"Tied Log Pile",
              "type":"BigObject",
              "price":600
          },
		  {
              "name":"Potted Plant",
              "type":"BigObject",
              "price":800
          },
		  {
              "name":"Empty Pot",
              "type":"BigObject",
              "price":400
          },
		  
        ],
        "portraits":[
          "assets/ShopPortraits/Misc/AdventurerLedger.png",
        ],
    },

    {
      "id": "YellowJunimo",
        "inventory": [

          {
              "name":"Ancient Seeds",
              "type":"Object",
              "price":8000
          },
          {
              "name":"Rare Seed",
              "type":"Object",
              "Price":1500
          },
          {
              "name":"Spring Seeds",
              "type":"Object",
              "price":65
          },
          {
              "name":"Summer Seeds",
              "type":"Object",
              "Price":90
          },
          {
              "name":"Fall Seeds",
              "type":"Object",
              "price":100
          },
          {
              "name":"Winter Seeds",
              "type":"Object",
              "Price":120
          }
        ],
        "portraits":[
          "assets/ShopPortraits/Junimos/YellowJunimo.png",
        ],
    },
    {
      "id": "BlueJunimo",
        "inventory": [
          {
              "name":"Legend",
              "type":"Object",
              "price":30000
          },
          {
              "name":"Crimsonfish",
              "type":"Object",
              "Price":25000
          },
          {
              "name":"Glacierfish",
              "type":"Object",
              "Price":20000
          },
          {
              "name":"Mutant Carp",
              "type":"Object",
              "Price":15000
          },
          {
              "name":"Angler",
              "type":"Object",
              "Price":10000
          },
          {
              "name":"Slimejack",
              "type":"Object",
              "Price":10000
          },
          {
              "name":"Lava Eel",
              "type":"Object",
              "price":12000
          },
          {
              "name":"Ice Pip",
              "type":"Object",
              "Price":6000
          },
          {
              "name":"Stonefish",
              "type":"Object",
              "price":5000
          },
          {
              "name":"Void Salmon",
              "type":"Object",
              "price":3000
          }
        ],
        "portraits":[
          "assets/ShopPortraits/Junimos/BlueJunimo.png",
        ],
    },
    {
      "id": "RedJunimo",
        "inventory": [
          {
              "index":107,
              "type":"Object",
              "Price":40000
          },
          {
              "index":96,
              "type":"Object",
              "Price":4000
          },
          {
              "index":97,
              "type":"Object",
              "Price":10000
          },
          {
              "index":98,
              "type":"Object",
              "Price":15000
          },
          {
              "index":99,
              "type":"Object",
              "Price":20000
          },
          {
              "index":100,
              "type":"Object",
              "Price":5000
          },
          {
              "index":101,
              "type":"Object",
              "Price":4000
          },
          {
              "index":103,
              "type":"Object",
              "Price":6000
          },
          {
              "index":104,
              "type":"Object",
              "Price":10000
          },
          {
              "index":105,
              "type":"Object",
              "Price":3000
          },
          {
              "index":106,
              "type":"Object",
              "Price":7000
          },
          {
              "index":108,
              "type":"Object",
              "Price":7000
          },
          {
              "index":114,
              "type":"Object",
              "Price":10000
          },
          {
              "index":122,
              "type":"Object",
              "Price":12000
          },
          {
              "index":124,
              "type":"Object",
              "Price":10000
          },
          {
              "index":125,
              "type":"Object",
              "Price":15000
          },
          {
              "index":109,
              "type":"Object",
              "Price":10000
          },
          {
              "index":112,
              "type":"Object",
              "Price":15000
          },
          {
              "index":111,
              "type":"Object",
              "Price":3000
          },
          {
              "index":121,
              "type":"Object",
              "Price":8000
          },
          {
              "index":119,
              "type":"Object",
              "Price":10000
          },
        ],
        "portraits":[
          "assets/ShopPortraits/Junimos/RedJunimo.png",
        ],
    },
    {
      "id": "GreyJunimo",
        "inventory": [
          {
              "name":"Prismatic Shard",
              "type":"Object",
              "price":100000
          },
          {
              "name":"Diamond",
              "type":"Object",
              "Price":4000
          },
          {
              "name":"Star Shards",
              "type":"Object",
              "price":3000
          },
          {
              "name":"Emerald",
              "type":"Object",
              "price":2000
          },
          {
              "name":"Ruby",
              "type":"Object",
              "Price":2000
          },
          {
              "name":"Aquamarine",
              "type":"Object",
              "price":1500
          },
          {
              "name":"Topaz",
              "type":"Object",
              "price":1500
          },
          {
              "name":"Jade",
              "type":"Object",
              "price":1200
          },
          {
              "name":"Amethyst",
              "type":"Object",
              "price":1000
          },
          {
              "name":"Granite",
              "type":"Object",
              "price":800
          }
        ],
        "portraits":[
          "assets/ShopPortraits/Junimos/GreyJunimo.png",
        ],
    },
    {
      "id": "PurpleJunimo",
        "inventory": [
          {
              "name":"Magic Bait",
              "type":"Object",
              "price":400,
			  "stock": 15
          },
          {
              "name":"Deluxe Fertilizer",
              "type":"Object",
              "price":300,
			  "stock": 15
          },
          {
              "name":"Hyper Speed-Gro",
              "type":"Object",
              "price":300,
			  "stock": 15
          },
          {
              "name":"Deluxe Retaining Soil",
              "type":"Object",
              "price":300,
			  "stock": 15
          },
        ],
        "portraits":[
          "assets/ShopPortraits/Junimos/PurpleJunimo.png",
        ],
    },
	{
      "id": "BearVendor",
        "inventory": [
          {
              "name":"Honey",
              "type":"Object",
              "price":1000
          },
		   {
              "name":"Maple Syrup",
              "type":"Object",
              "price":1500
          },
		   {
              "name":"Pine Tar",
              "type":"Object",
              "price":2500
          },
		   {
              "name":"Oak Resin",
              "type":"Object",
              "price":3500
          },
		  {
              "name":"Mahogany Seed",
              "type":"Object",
              "price":4000
          },
		   {
              "name":"Mixed Seeds",
              "type":"Object",
              "price":50
          },
		   {
              "name":"Fiber",
              "type":"Object",
              "price":50
          },
		  {
              "name":"Spring Onion",
              "type":"Object",
              "price":60
          },
		   {
              "name":"Salmonberry",
              "type":"Object",
              "price":80
          },
		   {
              "name":"Blackberry",
              "type":"Object",
              "price":80
          },
		   {
              "name":"Spice Berry",
              "type":"Object",
              "price":80
          },
		   {
              "name":"Wild Horseradish",
              "type":"Object",
              "price":100
          },
		   {
              "name":"Leek",
              "type":"Object",
              "price":200
          },
		   {
              "name":"Hazelnut",
              "type":"Object",
              "price":300
          },
		   {
              "name":"Crystal Fruit",
              "type":"Object",
              "price":350
          },
		  {
              "name":"Cave Carrot",
              "type":"Object",
              "price":400
          },
		   {
              "name":"Salmon",
              "type":"Object",
              "price":500
          },
        ],
        "portraits":[
          "assets/ShopPortraits/Misc/BearVendor.png",
        ],
    },
	
	
	//Joja Emporium shops
	
	{
      "id": "Zoey_Vendor", //Feed shop
        "inventory": [
          {
              "name":"Iridium Sprinkler",
              "type":"Object",
              "price":12000,
			  "stock":5
          },
		  {
              "name":"Pressure Nozzle",
              "type":"Object",
              "price":30000,
			  "stock":1
          },
          {
              "name":"Joja Berry Starter",
              "type":"Object",
              "price":6500
          },
          {
              "name":"Joja Veggie Seeds",
              "type":"Object",
              "price":600
          },
          {
              "name":"Rare Seed",
              "type":"Object",
              "Price":1500
          },
          {
              "name":"Spring Seeds",
              "type":"Object",
              "price":70
          },
          {
              "name":"Summer Seeds",
              "type":"Object",
              "Price":90
          },
          {
              "name":"Fall Seeds",
              "type":"Object",
              "price":100
          },
          {
              "name":"Winter Seeds",
              "type":"Object",
              "Price":120
          },
          {
              "name":"Quality Fertilizer",
              "type":"Object",
              "Price":130
          },
          {
              "name":"Deluxe Speed-Gro",
              "type":"Object",
              "Price":120
          }
        ],
        "portraits":[
          "assets/ShopPortraits/Joja/Zoey_Vendor.png",
        ],
    },
	
	{
      "id": "Jace_Vendor1", //treasure shop
        "inventory": [
          {
              "name":"Diamond",
              "type":"Object",
              "Price":4000,
			  "stock":1
          },
          {
              "name":"Star Shards",
              "type":"Object",
              "price":3000,
			  "stock":1
          },
          {
              "name":"Ocean Stone",
              "type":"Object",
              "price":2000,
			  "stock":1
          },
          {
              "name":"Emerald",
              "type":"Object",
              "price":2500,
			  "stock":1
          },
          {
              "name":"Aquamarine",
              "type":"Object",
              "price":1500,
			  "stock":1
          },
          {
              "name":"Topaz",
              "type":"Object",
              "price":1500,
			  "stock":1
          },
          {
              "name":"Jade",
              "type":"Object",
              "price":1200,
			  "stock":1
          },
          {
              "name":"Granite",
              "type":"Object",
              "price":800,
			  "stock":1
          },
          {
              "name":"Tigerseye",
              "type":"Object",
              "price":800,
			  "stock":1
          },
        ],
        "portraits":[
          "assets/ShopPortraits/Joja/Jace_Vendor1.png",
        ],
    },
	
	{
      "id": "Jace_Vendor2", //treasure shop
        "inventory": [
          {
              "name":"Prismatic Shard",
              "type":"Object",
              "price":100000,
			  "stock":1
          },
          {
              "name":"Fairy Stone",
              "type":"Object",
              "price":8000,
			  "stock":1
          },
          {
              "name":"Ruby",
              "type":"Object",
              "Price":2500,
			  "stock":1
          },
          {
              "name":"Amethyst",
              "type":"Object",
              "price":1000,
			  "stock":1
          },
          {
              "name":"Opal",
              "type":"Object",
              "price":1000,
			  "stock":1
          },
          {
              "name":"Marble",
              "type":"Object",
              "price":3000,
			  "stock":1
          },
          {
              "name":"Granite",
              "type":"Object",
              "price":3000,
			  "stock":1
          },
          {
              "name":"Petrified Slime",
              "type":"Object",
              "price":1500,
			  "stock":1
          },
          {
              "name":"Kyanite",
              "type":"Object",
              "price":1000,
			  "stock":1
          },
          {
              "name":"Lunarite",
              "type":"Object",
              "price":2000,
			  "stock":1
          },

        ],
        "portraits":[
          "assets/ShopPortraits/Joja/Jace_Vendor2.png",
        ],
    },
	
	{
      "id": "Jace_Vendor3", //treasure shop
        "inventory": [
          {
              "index":107,
              "type":"Object",
              "Price":40000,
			  "stock":1
          },
          {
              "index":96,
              "type":"Object",
              "Price":4000,
			  "stock":1
          },
          {
              "index":97,
              "type":"Object",
              "Price":10000,
			  "stock":1
          },
          {
              "index":98,
              "type":"Object",
              "Price":15000,
			  "stock":1
          },
          {
              "index":99,
              "type":"Object",
              "Price":20000,
			  "stock":1
          },
          {
              "index":100,
              "type":"Object",
              "Price":5000,
			  "stock":1
          },
          {
              "index":101,
              "type":"Object",
              "Price":4000,
			  "stock":1
          },
          {
              "index":103,
              "type":"Object",
              "Price":6000,
			  "stock":1
          },
          {
              "index":104,
              "type":"Object",
              "Price":10000,
			  "stock":1
          },
          {
              "index":105,
              "type":"Object",
              "Price":3000,
			  "stock":1
          },
          {
              "index":106,
              "type":"Object",
              "Price":7000,
			  "stock":1
          },
          {
              "index":108,
              "type":"Object",
              "Price":7000,
			  "stock":1
          },
          {
              "index":114,
              "type":"Object",
              "Price":10000,
			  "stock":1
          },
          {
              "index":122,
              "type":"Object",
              "Price":12000,
			  "stock":1
          },
          {
              "index":124,
              "type":"Object",
              "Price":10000,
			  "stock":1
          },
          {
              "index":125,
              "type":"Object",
              "Price":15000,
			  "stock":1
          },
          {
              "index":109,
              "type":"Object",
              "Price":10000,
			  "stock":1
          },
          {
              "index":112,
              "type":"Object",
              "Price":15000,
			  "stock":1
          },
          {
              "index":111,
              "type":"Object",
              "Price":3000,
			  "stock":1
          },
          {
              "index":121,
              "type":"Object",
              "Price":8000,
			  "stock":1
          },
          {
              "index":119,
              "type":"Object",
              "Price":10000,
			  "stock":1
          },

        ],
        "portraits":[
          "assets/ShopPortraits/Joja/Jace_Vendor3.png",
        ],
    },
	
	{
      "id": "Chloe_Vendor1", //cafe
        "inventory": [
          {
              "name":"Magic Rock Candy",
              "type":"Object",
              "price":80000,
			  "stock":1
          },
          {
              "name":"Pink Cake",
              "type":"Object",
              "price":1200,
			  "stock":1
          },
          {
              "name":"Chocolate Cake",
              "type":"Object",
              "price":1200,
			  "stock":1
          },
          {
              "name":"Rhubarb Pie",
              "type":"Object",
              "price":800,
			  "stock":1
          },
          {
              "name":"Blueberry Tart",
              "type":"Object",
              "price":600,
			  "stock":1
          },
        ],
        "portraits":[
          "assets/ShopPortraits/Joja/Chloe_Vendor1.png",
        ],
    },
	
	{
      "id": "Chloe_Vendor2", //cafe
        "inventory": [
          {
              "name":"Void Delight",
              "type":"Object",
              "price":50000,
			  "stock":1
          },
          {
              "name":"Salmon Dinner",
              "type":"Object",
              "price":1500,
			  "stock":1
          },
          {
              "name":"Crispy Bass",
              "type":"Object",
              "price":1200,
			  "stock":1
          },
          {
              "name":"Sashimi",
              "type":"Object",
              "price":900,
			  "stock":1
          },
          {
              "name":"Maki Roll",
              "type":"Object",
              "price":500,
			  "stock":1
          },
		  
        ],
        "portraits":[
          "assets/ShopPortraits/Joja/Chloe_Vendor2.png",
        ],
    },
	
	{
      "id": "Chloe_Vendor3", //cafe
        "inventory": [
		  {
              "name":"Seafoam Pudding",
              "type":"Object",
              "price":6000,
			  "stock":1
          },
		  {
              "name":"Pumpkin Soup",
              "type":"Object",
              "price":600,
			  "stock":1
          },
		  {
              "name":"Parsnip Soup",
              "type":"Object",
              "price":400,
			  "stock":1
          },
		  {
              "name":"Trout Soup",
              "type":"Object",
              "price":400,
			  "stock":1
          },
		  {
              "name":"Tom Kha Soup",
              "type":"Object",
              "price":400,
			  "stock":1
          },
		  
        ],
        "portraits":[
          "assets/ShopPortraits/Joja/Chloe_Vendor3.png",
        ],
    },
	
	{
      "id": "Chloe_Vendor4", //cafe
        "inventory": [
          {
              "name":"Lucky Lunch",
              "type":"Object",
              "price":2000,
			  "stock":1
          },
          {
              "name":"Roots Platter",
              "type":"Object",
              "price":2000,
			  "stock":1
          },
          {
              "name":"Super Meal",
              "type":"Object",
              "price":1250,
			  "stock":1
          },
          {
              "name":"Complete Breakfast",
              "type":"Object",
              "price":1000,
			  "stock":1
          },
          {
              "name":"Survival Burger",
              "type":"Object",
              "price":650,
			  "stock":1
          },
		  
        ],
        "portraits":[
          "assets/ShopPortraits/Joja/Chloe_Vendor4.png",
        ],
    },

	{
      "id": "Axel_Vendor1", //shady shop
        "inventory": [
          {
              "name":"Radioactive Bar",
              "type":"Object",
              "price":20000,
			  "stock": 1
          },
          {
              "name":"Magic Bait",
              "type":"Object",
              "price":500,
			  "stock": 5
          },
          {
              "name":"Deluxe Fertilizer",
              "type":"Object",
              "price":300,
			  "stock": 15
          },
          {
              "name":"Hyper Speed-Gro",
              "type":"Object",
              "price":300,
			  "stock": 15
          },
          {
              "name":"Deluxe Retaining Soil",
              "type":"Object",
              "price":300,
			  "stock": 15
          },
        ],
        "portraits":[
          "assets/ShopPortraits/Joja/Axel_Vendor1.png",
        ],
    },	
	
	{
      "id": "Axel_Vendor2",
        "inventory": [
          {
              "name":"Pearl",
              "type":"Object",
              "price":20000,
			  "stock":1
          },
          {
              "name":"Legend",
              "type":"Object",
              "price":30000,
			  "stock":1
          },
          {
              "name":"Crimsonfish",
              "type":"Object",
              "Price":25000,
			  "stock":1
          },
          {
              "name":"Glacierfish",
              "type":"Object",
              "Price":20000,
			  "stock":1
          },
          {
              "name":"Mutant Carp",
              "type":"Object",
              "Price":15000,
			  "stock":1
          },
          {
              "name":"Angler",
              "type":"Object",
              "Price":10000,
			  "stock":1
          }
        ],
        "portraits":[
          "assets/ShopPortraits/Joja/Axel_Vendor2.png",
        ],
    },
	
  ],
  
  	"spouseRooms": [
        {
        "name": "Victor",
        "file": "assets/SpouseRooms/VictorsRoom.tmx"
        },
		{
        "name": "Olivia",
        "file": "assets/SpouseRooms/OliviasRoom.tmx"
        },
		{
        "name": "Sophia",
        "file": "assets/SpouseRooms/SophiasRoom.tmx"
        },
		{
        "name": "Claire",
        "file": "assets/SpouseRooms/ClairesRoom.tmx"
        },
    ]
  
}