{
    "Name": "Wild Boar Leather",
    "Description": "The hide of a wild boar that has been tanned.",
    "Category": "AnimalGoods",
    "Edibility": -300,
    "Price": 100,
    "IsColored": false,
    "GiftTastes":
    {
        "Dislike": ["Abigail", "Alex", "Caroline", "Clint", "Demetrius", "Dwarf", "Elliott", "Emily", "Evelyn", "George", "Gus", "Haley", "Harvey", "Jas", "Jodi", "Kent", "Krobus", "Leah", "Lewis", "Linus", "Marnie", "Maru", "Pam", "Penny", "Pierre", "Robin", "Sam", "Sandy", "Shane", "Vincent", "Willy", "Wizard"],
        "Hate": ["Sebastian"],
    },
    "Recipe": null,
    "NameLocalization":
    {
        "es": "Piel de jabalí",
        "ko": "멧돼지 가죽",
        //"de": "",
        "fr": "Cuir de sanglier",
        "hu": "Vaddisznóbőr",
        // "it": "",
        //"ja": "",
        //"pt": "",
        // "ru": "",
        // "tr": "",
        "zh": "野猪皮",
    },
    "DescriptionLocalization":
    {
        "es": "Una piel de jabalí que ha sido curtida.",
        "ko": "야생 멧돼지의 가죽.",
        //"de": "",
        "fr": "La peau d'un sanglier sauvage qui a été tannée.",
        "hu": "Egy vaddisznó cserzett bőre.",
        // "it": "",
        //"ja": "",
        //"pt": "",
        // "ru": "",
        // "tr": "",
        "zh": "经过鞣制的野猪皮。",
    },
    "ContextTags": [
        "leather_item",
    ],
    "EnableWithMod": "Cherry.MultiYieldCrops"
}
