{
    "Name": "Yeast",
    "Description": "Useful for brewing.",
    "Category": "ArtisanGoods",
    "Edibility": -300,
    "Price": 5,
    "IsColored": false,
    "Recipe":
    {
        "ResultCount": 1,
        "Ingredients": [
        {
            "Object": "Barley Malt",
            "Count": 1,
        }, ],
        "IsDefault": false,
    },
    "CanPurchase": true,
    "PurchaseFrom": "Pierre",
    "PurchasePrice": 10,
        "GiftTastes":
    {
        "Neutral": ["Emily", "Evelyn", "Leah", "Marnie", "Gus", "Clint", "George", "Sebastian", "Abigail", "Alex", "Caroline", "Demetrius", "Dwarf", "Elliott", "Haley", "Harvey", "Jodi", "Kent", "Krobus", "Leah", "Lewis", "Linus", "Maru", "Pierre", "Robin", "Sam", "Sandy", "Willy", "Wizard", "Pam", "Shane", "Penny", "Vincent", "Jas"],
    },
    "NameLocalization":
    {
        "es": "Levadura",
        "ko": "효모",
        "de": "Hefe",
        "fr": "Levure",
        "hu": "Élesztő",
        // "it": "",
        "ja": "イースト",
        "pt": "Levedura",  
        "ru": "Дрожжи",
        // "tr": "",
        "zh": "酵母",
    },
    "DescriptionLocalization":
    {
        "es": "Útil para la fermentacion",
        "ko": "양조하는데 유용합니다.",
        "de": "Nützlich beim Brauen.",
        "fr": "Utile pour le brassage.",
        "hu": "Söfőzéshez hasznos.",
        // "it": "",
        "ja": "醸造に役立つ。",
        "pt": "Útil para fermentação",
        "ru": "Полезно для пивоварения.",
        // "tr": "",
        "zh": "用于酿造。",
    }
}
