{
    "Name": "Blueberry Creme Popsicle",
    "Description": "Blueberries and creme make for an excellent summer day treat.",
    "Category": "Cooking",
    "Edibility": 44,
    "EdibleIsDrink": false,
    "EdibleBuffs": null,
    "Price": 500,
    "IsColored": false,
    "GiftTastes":
    {
        "Love": ["Demetrius"],
        "Like": ["Abigail", "Alex", "Caroline", "Clint", "Dwarf", "Elliott", "Evelyn", "George", "Gus", "Haley", "Harvey", "Jas", "Jodi", "Kent", "Lewis", "Linus", "Marnie", "Maru", "Pam", "Penny", "Pierre", "Robin", "Sam", "Sandy", "Sebastian", "Shane", "Vincent", "Wizard"],
        "Dislike": ["Emily", "Krobus", "Leah", "Willy"],
    },
    "Recipe":
    {
        "ResultCount": 1,
        "Ingredients": [
        {
            "Object": 258,
            "Count": 1,
        },
        {
            "Object": -6,
            "Count": 1,
        },
        {
            "Object": 388,
            "Count": 1,
        }],
        "CanPurchase": true,
        "PurchaseFrom": "GVDefault",
        "PurchasePrice": 900,
    },
    "NameLocalization":
    {
        "es": "Paleta de crema de arándanos",
        "ko": "블루베리 크림 팝시클",
        "de": "Blaubeercreme am Stiel",
        "fr": "Glace à l'eau crème-myrtille",
        "hu": "Áfonya szószos jégkrém",
        // "it": "",
        "ja": "ブルーベリークリームアイスバー",
        "pt": "Picolé de creme de mirtilo",
        // "ru": "",
        // "tr": "",
        "zh": "蓝莓奶油冰棒",
    },
    "DescriptionLocalization":
    {
        "es": "Los arándanos y la crema son excelentes para el verano.",
        "ko": "블루베리와 크림은 여름철 최고의 간식이에요.",
        "de": "Blaubeeren und Creme eignen sich perfekt für einen Sommersnack.",
        "fr": "Myrtilles et crème faites pour un excellent délice d'été au soleil.",
        "hu": "Mi is lehet jobb az áfonyánál egy kis jégkrémmel egy nyári napon?",
        // "it": "",
        "ja": "夏の日にすばらしいおやつ。",
        "pt": "Mirtilos e creme são um excelente presente para um dia de verão.",
        // "ru": "",
        // "tr": "",
        "zh": "蓝莓和奶油是夏天解暑的最佳选择。",
    }
}