{
    "Name": "Candied Apple",
    "Description": "An apple that has been saturated in sugar.",
    "Category": "Cooking",
    "Edibility": 34,
    "EdibleIsDrink": false,
    "EdibleBuffs": null,
    "Price": 300,
    "IsColored": false,
    "GiftTastes":
    {
        "Love": ["Jas", "Vincent"],
        "Like": ["Abigail", "Alex", "Caroline", "Clint", "Demetrius", "Dwarf", "Elliott", "Emily", "Evelyn", "Gus", "Haley", "Harvey", "Jodi", "Kent", "Lewis", "Linus", "Marnie", "Maru", "Pam", "Penny", "Pierre", "Robin", "Sam", "Sandy", "Shane", "Wizard"],
        "Neutral": ["George", "Krobus", "Leah", "Sebastian", "Willy"],
    },
    "Recipe":
    {
        "ResultCount": 1,
        "Ingredients": [
        {
            "Object": 245,
            "Count": 1,
        },
        {
            "Object": 613,
            "Count": 1,
        }],
        "CanPurchase": true,
        "PurchaseFrom": "GVDefault",
        "PurchasePrice": 1300,
        "PurchaseRequirements": ["z spring summer winter", ],
    },
    "NameLocalization":
    {
        "es": "Manzana confitada",
        "ko": "캔디드 애플",
        "de": "Kandierter Apfel",
        "fr": "Pomme confite",
        "hu": "Karamellizált alma",
        // "it": "",
        "ja": "リンゴアメ",
        "pt": "Maçã cristalizada",
        // "ru": "",
        // "tr": "",
        "zh": "苹果蜜饯",
    },
    "DescriptionLocalization":
    {
        "es": "Una manzana que ha sido saturada en azúcar. ¡No es nada buena para las venas!",
        "ko": "설탕에 흠뻑 절여진 사과.",
        "de": "Ein mit Zucker überzogener Apfel.",
        "fr": "Une pomme qui a été saturée en sucre.",
        "hu": "Egy cukorral átitatott alma.",
        // "it": "",
        "ja": "砂糖でおおいつくしたリンゴ。",
        "pt": "Uma maçã que foi encharcada com açúcar.",
        // "ru": "",
        // "tr": "",
        "zh": "被糖充分浸渍的苹果。",
    }
}