{
    "Name": "Dryer",
    "Description": "Used to dry flowers and leaves for tea making, and vegetables into chips.",
    "Price": 1,
    "ProvidesLight": false,
    "CanPurchase": false,
    "PurchaseFrom": "Gus",
    "PurchasePrice": 2285,
        "ReserveExtraIndexCount": 2,
    "Recipe":
    {
        "ResultCount": 1,
        "Ingredients": [
        {
            "Object": 709,
            "Count": 30
        },
        {
            "Object": 771,
            "Count": 20
        },
        {
            "Object": 334,
            "Count": 1
        }]
    },
    "NameLocalization": //Used for localization. 
    {
        //"es": "", //Spanish
        "ko": "건조기", //Korean
        "de": "Trockner", //German
        //"fr": "", //French
        "hu": "Szárító", //Hungarian
        //"it": "", //Italian
        "ja": "乾燥ラック", //Japanese
        "pt": "Secador", //Portuguese
        "ru": "Сушилка", //Russian
        //"tr": "", //Turkish
        "zh": "晾晒架", //Chinese (Simplified)
    },
    "DescriptionLocalization": //Used for localization. 
    {
        //"es": "", //Spanish
        "ko": "말린 꽃과 잎을 차로 만들거나, 야채를 칩으로 만들 수 있습니다.", //Korean
        "de": "Zum Trocknen von Blumen und Blättern für die Teezubereitung und von Gemüse zu Pommes.", //German
        //"fr": "", //French
        "hu": "Virágszirmok, és levelek kiszárítására a teakészítéshez, valamint zöldségek kiszárítására a chipskészítéshez használatos.", //Hungarian
        //"it": "", //Italian
        "ja": "草花を乾燥させてお茶にしたり、野菜チップスを作るのに使われる。", //Japanese
        "pt": "É usado para secar folhas e flores para fazer chá e seca legumes para fazer frituras.", //Portuguese
        "ru": "Используется для сушки цветов и листьев для последующего приготовления чая и сушки овощей в чипсы.", //Russian
        //"tr": "", //Turkish
        "zh": "用来把花和叶子晒干，把蔬菜做成蔬菜脆片。", //Chinese (Simplified)
    }
}
