{
    "Name": "GiantAllium",
    "Product": "Giant Allium",
    "SeedName": "Giant Allium Bulb",
    "SeedDescription": "Plant in spring. Takes 8 days to produce a large globe of blossoms.",
    "Type": "Flower",

    "Seasons": ["spring"],
    "Phases": [1, 3, 3, 1],
    "RegrowthPhase": -1,
    "HarvestWithScythe": false,
    "TrellisCrop": false,
    "Colors": [
        "147, 101, 180, 255",
        "231, 237, 207, 255",
        "197, 111, 165, 255",
		"243, 193, 224, 255"
    ],
    "Bonus":
    {
        "MinimumPerHarvest": 1,
        "MaximumPerHarvest": 1,
        "MaxIncreasePerFarmLevel": 10,
        "ExtraChance": 0.0,
    },
    "SeedPurchaseFrom": "STF.GVFlorist",
    "SeedPurchasePrice": 50,
    "SeedNameLocalization":
    {
        
    },
    "SeedDescriptionLocalization":
    {
        
    }
}
