{
    "Name": "Strawberry Cake",
    "Description": "A delicious summer treat!",
    "Category": "Cooking",
    "Edibility": 82,
    "EdibleIsDrink": false,
    "EdibleBuffs": null,
    "Price": 600,
    "IsColored": false,
    "GiftTastes":
    {
        "Like": ["Alex", "Caroline", "Clint", "Demetrius", "Dwarf", "Elliott", "Emily", "Evelyn", "George", "Gus", "Harvey", "Jodi", "Kent", "Leah", "Lewis", "Linus", "Marnie", "Maru", "Pam", "Penny", "Pierre", "Robin", "Sam", "Sandy", "Sebastian", "Shane", "Wizard"],
        "Neutral": ["Abigail", "Haley", "Jas", "Vincent"],
        "Dislike": ["Krobus", "Willy"],
    },
    "Recipe":
    {
        "ResultCount": 1,
        "Ingredients": [
        {
            "Object": 400,
            "Count": 2,
        },
        {
            "Object": 246,
            "Count": 1,
        },
        {
            "Object": 245,
            "Count": 1,
        },
        {
            "Object": -6,
            "Count": 1,
        }],
        "CanPurchase": true,
        "PurchaseFrom": "GVDefault",
        "PurchasePrice": 2600,
        "PurchaseRequirements": [
            "z spring fall winter",
        ]
    },
    "NameLocalization":
    {
        "es": "Pastel de fresa",
        "ko": "딸기 케이크",
        "de": "Erdbeerkuchen",
        "fr": "Gâteau aux fraises",
         // "hu": "",
         // "it": "",
        "ja": "ストロベリーケーキ",
        "pt": "Bolo de morango",
         // "ru": "",
         // "tr": "",
        "zh": "草莓蛋糕",
    },
    "DescriptionLocalization":
    {
        "es": "¡Un delicioso regalo de verano!",
        "ko": "맛있는 여름 간식!",
        "de": "Der perfekte Kuchen für den Sommer.",
        "fr": "Un régal en été !",
         // "hu": "",
         // "it": "",
        "ja": "おいしい夏のごちそう！",
        "pt": "Um delicioso deleite de verão!",
         // "ru": "",
         // "tr": "",
        "zh": "一份美味的夏日甜点！",
    }
}