{
    "Name": "Crocus White Tea",
    "Description": "A tea made with a crocus.",
    "Category": "Cooking",
    "Edibility": 16,
    "EdibleIsDrink": true,
    "EdibleBuffs":
    {
        "Farming": 0,
        "Fishing": 0,
        "Mining": 0,
        "Luck": 0,
        "Foraging": 1,
        "MaxStamina": 0,
        "MagnetRadius": 0,
        "Speed": 0,
        "Defense": 0,
        "Attack": 0,
        "Duration": 100,
    },
    "Price": 375,
    "IsColored": false,
    "Recipe":
    {
        "ResultCount": 1,
        "Ingredients": [
        {
            "Object": 815,
            "Count": 1,
        },
        {
            "Object": 418,
            "Count": 2,
        }],
        "CanPurchase": true,
        "PurchaseFrom": "GVDefault",
        "PurchasePrice": 1375,
        "PurchaseRequirements": [
            "z spring summer fall",
        ]
    },
    "GiftTastes":
    {
        "Love": ["Sandy"],
        "Like": ["Abigail", "Alex", "Caroline", "Demetrius", "Dwarf", "Elliott", "Emily", "Evelyn", "Gus", "Haley", "Harvey", "Jodi", "Kent", "Krobus", "Leah", "Lewis", "Linus", "Marnie", "Maru", "Pam", "Penny", "Pierre", "Robin", "Sam", "Sebastian", "Shane", "Willy", "Wizard"],
        "Dislike": ["Clint", "George", "Jas", "Vincent"],
    },

    "NameLocalization":
    {
        "es": "Té blanco de azafrán",
        "ko": "크로커스 화이트 티",
        "de": "Krokus-Weißtee",
        "fr": "Thé blanc au safran",
         // "hu": "",
         // "it": "",
        "ja": "クロッカス白茶",
        "pt": "Chá branco de açafrão",
        "ru": "Белый чай с крокусом",
         // "tr": "",
        "zh": "番红花白茶",
    },
    "DescriptionLocalization":
    {
        "es": "Un té hecho con azafrán.",
        "ko": "크로커스로 만든 차.",
        "de": "Tee aus Krokus gemacht.",
        "fr": "Un thé à base de safran.",
         // "hu": "",
         // "it": "",
        "ja": "クロッカスから作られたお茶。",
        "pt": "Um chá feito com açafrão.",
        "ru": "Чай, сделанный из крокуса.",
         // "tr": "",
        "zh": "番红花白茶。一种用番红花做的茶。",
    },
    "ContextTags": [
        "color_white",
        "color_purple",
        "tea_item",
    ],
}