{
    "Name": "Mushroom Soup",
    "Description": "A simple type of soup where a basic roux is thinned with cream or milk and then mushroom are added.",
    "Category": "Cooking",
    "Edibility": 55,
    "EdibleIsDrink": false,
    "EdibleBuffs": null,
    "Price": 685,
    "IsColored": false,
    "GiftTastes":
    {
        "Love": ["Abigail", "Harvey", "Alex", "Marnie", "Sebastian", "Elliott", "Willy", "George", ],
        "Like": ["Maru", "Sandy", "Jodi", ],
        "Dislike": ["Penny", "Demetrius"],
        "Hate": ["Dwarf"]
    },
    "Recipe":
    {
        "ResultCount": 1,
        "Ingredients": [
        {
            "Object": "Butter",
            "Count": 1,
        },
        {
            "Object": 246,
            "Count": 1,
        },
        {
            "Object": -6,
            "Count": 1,
        },
        {
            "Object": "Shiitake Mushroom",
            "Count": 1,
        },
        {
            "Object": 404,
            "Count": 1,
        }, ],
        "CanPurchase": true,
        "PurchaseFrom": "GVDefault",
        "PurchasePrice": 1100,
        "PurchaseRequirements": ["y 4"],
    },
    "NameLocalization":
    {
        // "es": "",
        // "ko": "",
        // "de": "",
        // "fr": "",
        // "hu": "",
        // "it": "",
        "ja": "キノコスープ",
        "pt": "Sopa de Cogumelo",
        // "ru": "",
        // "tr": "",
        // "zh": "",
    },
    "DescriptionLocalization":
    {
        // "es": "",
        // "ko": "",
        // "de": "",
        // "fr": "",
        // "hu": "",
        // "it": "",
        "ja": "ベーシックなルウをクリームとミルクで薄めキノコを加えたシンプルなスープ。",
        "pt": "Um tipo simples de sopa onde um roux básico é diluído com creme ou leite e, em seguida, cogumelo são adicionados.",
        // "ru": "",
        // "tr": "",
        // "zh": "",
    }
}