{
    "Name": "Cotton Candy",
    "Description": "It's spun sugar.",
    "Category": "Cooking",
    "Edibility": 16,
    "EdibleIsDrink": false,
    "EdibleBuffs": null,
    "Price": 250,
    "IsColored": false,
    "GiftTastes":
    {
        "Love": ["Jas", "Vincent"],
        "Like": ["Abigail", "Alex", "Caroline", "Clint", "Demetrius", "Dwarf", "Elliott", "Emily", "Evelyn", "Gus", "Haley", "Harvey", "Jodi", "Kent", "Lewis", "Linus", "Marnie", "Maru", "Pam", "Penny", "Pierre", "Robin", "Sam", "Sandy", "Shane", "Wizard"],
        "Neutral": ["George", "Sebastian"],
        "Dislike": ["Krobus", "Leah", "Willy"],
    },
    "Recipe":
    {
        "ResultCount": 1,
        "Ingredients": [
        {
            "Object": 245,
            "Count": 1,
        }],
        "CanPurchase": true,
        "PurchaseFrom": "GVDefault",
        "PurchasePrice": 1250,
            },
    "NameLocalization":
    {
        "es": "Algodón de azúcar",
        "ko": "솜사탕",
        "de": "Zuckerwatte",
        "fr": "Barbe à papa",
         // "hu": "",
         // "it": "",
        "ja": "わたあめ",
        "pt": "Algodão doce",
         // "ru": "",
         // "tr": "",
        "zh": "棉花糖",
    },
    "DescriptionLocalization":
    {
        "es": "Es azúcar hilado.",
        "ko": "보드라운 솜사탕.",
        "de": "Feine Zuckerfäden zu etwas Leckerem verwoben.",
        "fr": "C'est du sucre filé.",
         // "hu": "",
         // "it": "",
        "ja": "糸状にした砂糖を紡いだもの。",
        "pt": "É tecido com açúcar.",
         // "ru": "",
         // "tr": "",
        "zh": "这种糖像丝一样。",
    }
}